"0","# Change color, linetype by strata, risk.table color by strata"
"0","ggsurvplot(fit,"
"0","          pval = TRUE, conf.int = TRUE,"
"0","          risk.table = TRUE, # Add risk table"
"0","          risk.table.col = ""strata"", # Change risk table color by groups"
"0","          linetype = ""strata"", # Change line type by groups"
"0","          surv.median.line = ""hv"", # Specify median survival"
"0","          ggtheme = theme_bw(), # Change ggplot2 theme"
"0","          palette = c(""#E7B800"", ""#2E9FDF""))"
