%!PS-Adobe-3.0
%%DocumentNeededResources: font Helvetica
%%+ font Helvetica-Bold
%%+ font Helvetica-Oblique
%%+ font Helvetica-BoldOblique
%%+ font Symbol
%%DocumentMedia: a4 595 841 0 () ()
%%Title: R Graphics Output
%%Creator: R Software
%%Pages: (atend)
%%Orientation: Landscape
%%BoundingBox: 18 18 577 824
%%EndComments
%%BeginProlog
/bp  { gs sRGB 595.00 0 translate 90 rotate gs } def
% begin .ps.prolog
/gs  { gsave } bind def
/gr  { grestore } bind def
/ep  { showpage gr gr } bind def
/m   { moveto } bind def
/l  { rlineto } bind def
/np  { newpath } bind def
/cp  { closepath } bind def
/f   { fill } bind def
/o   { stroke } bind def
/c   { newpath 0 360 arc } bind def
/r   { 4 2 roll moveto 1 copy 3 -1 roll exch 0 exch rlineto 0 rlineto -1 mul 0 exch rlineto closepath } bind def
/p1  { stroke } bind def
/p2  { gsave bg fill grestore newpath } bind def
/p3  { gsave bg fill grestore stroke } bind def
/p6  { gsave bg eofill grestore newpath } bind def
/p7  { gsave bg eofill grestore stroke } bind def
/t   { 5 -2 roll moveto gsave rotate
       1 index stringwidth pop
       mul neg 0 rmoveto show grestore } bind def
/ta  { 4 -2 roll moveto gsave rotate show } bind def
/tb  { 2 -1 roll 0 rmoveto show } bind def
/cl  { grestore gsave newpath 3 index 3 index moveto 1 index
       4 -1 roll lineto  exch 1 index lineto lineto
       closepath clip newpath } bind def
/rgb { setrgbcolor } bind def
/s   { scalefont setfont } bind def
% end   .ps.prolog
/sRGB { [ /CIEBasedABC
          << /DecodeLMN
               [ { dup 0.03928 le
                        {12.92321 div}
                        {0.055 add 1.055 div 2.4 exp }
                     ifelse
                 } bind dup dup
               ]
             /MatrixLMN [0.412457 0.212673 0.019334
                         0.357576 0.715152 0.119192
                         0.180437 0.072175 0.950301]
             /WhitePoint [0.9505 1.0 1.0890]
           >>
         ] setcolorspace } bind def
/srgb { setcolor } bind def
% begin encoding
/WinAnsiEncoding [
 /.notdef /.notdef /.notdef /.notdef /.notdef /.notdef /.notdef /.notdef
 /.notdef /.notdef /.notdef /.notdef /.notdef /.notdef /.notdef /.notdef
 /.notdef /.notdef /.notdef /.notdef /.notdef /.notdef /.notdef /.notdef
 /.notdef /.notdef /.notdef /.notdef /.notdef /.notdef /.notdef /.notdef
 /space /exclam /quotedbl /numbersign /dollar /percent /ampersand /quoteright
 /parenleft /parenright /asterisk /plus /comma /minus /period /slash
 /zero /one /two /three /four /five /six /seven
 /eight /nine /colon /semicolon /less /equal /greater /question
 /at /A /B /C /D /E /F /G
 /H /I /J /K /L /M /N /O
 /P /Q /R /S /T /U /V /W
 /X /Y /Z /bracketleft /backslash /bracketright /asciicircum /underscore
 /grave /a /b /c /d /e /f /g
 /h /i /j /k /l /m /n /o
 /p /q /r /s /t /u /v /w
 /x /y /z /braceleft /bar /braceright /asciitilde /.notdef
 /Euro /.notdef /quotesinglbase /florin /quotedblbase /ellipsis /dagger /daggerdbl
 /circumflex /perthousand /Scaron /guilsinglleft /OE /.notdef /Zcaron /.notdef
 /.notdef /quoteleft /quoteright /quotedblleft /quotedblright /bullet /endash /emdash
 /tilde /trademark /scaron /guilsinglright /oe /.notdef /zcaron /Ydieresis
 /space /exclamdown /cent /sterling /currency /yen /brokenbar /section
 /dieresis /copyright /ordfeminine /guillemotleft /logicalnot /hyphen /registered /macron
 /degree /plusminus /twosuperior /threesuperior /acute /mu /paragraph /periodcentered
 /cedilla /onesuperior /ordmasculine /guillemotright /onequarter /onehalf /threequarters /questiondown
 /Agrave /Aacute /Acircumflex /Atilde /Adieresis /Aring /AE /Ccedilla
 /Egrave /Eacute /Ecircumflex /Edieresis /Igrave /Iacute /Icircumflex /Idieresis
 /Eth /Ntilde /Ograve /Oacute /Ocircumflex /Otilde /Odieresis /multiply
 /Oslash /Ugrave /Uacute /Ucircumflex /Udieresis /Yacute /Thorn /germandbls
 /agrave /aacute /acircumflex /atilde /adieresis /aring /ae /ccedilla
 /egrave /eacute /ecircumflex /edieresis /igrave /iacute /icircumflex /idieresis
 /eth /ntilde /ograve /oacute /ocircumflex /otilde /odieresis /divide
 /oslash /ugrave /uacute /ucircumflex /udieresis /yacute /thorn /ydieresis
]
 def
% end encoding
%%IncludeResource: font Helvetica
/Helvetica findfont
dup length dict begin
  {1 index /FID ne {def} {pop pop} ifelse} forall
  /Encoding WinAnsiEncoding def
  currentdict
  end
/Font1 exch definefont pop
%%IncludeResource: font Helvetica-Bold
/Helvetica-Bold findfont
dup length dict begin
  {1 index /FID ne {def} {pop pop} ifelse} forall
  /Encoding WinAnsiEncoding def
  currentdict
  end
/Font2 exch definefont pop
%%IncludeResource: font Helvetica-Oblique
/Helvetica-Oblique findfont
dup length dict begin
  {1 index /FID ne {def} {pop pop} ifelse} forall
  /Encoding WinAnsiEncoding def
  currentdict
  end
/Font3 exch definefont pop
%%IncludeResource: font Helvetica-BoldOblique
/Helvetica-BoldOblique findfont
dup length dict begin
  {1 index /FID ne {def} {pop pop} ifelse} forall
  /Encoding WinAnsiEncoding def
  currentdict
  end
/Font4 exch definefont pop
%%IncludeResource: font Symbol
/Symbol findfont
dup length dict begin
  {1 index /FID ne {def} {pop pop} ifelse} forall
  currentdict
  end
/Font5 exch definefont pop
%%EndProlog
%%Page: 1 1
bp
18.00 18.00 823.89 577.28 cl
0 0 0 srgb
0.75 setlinewidth
[] 0 setdash
1 setlinecap
1 setlinejoin
10.00 setmiterlimit
np
102.99 91.44 m
605.26 0 l
o
np
102.99 91.44 m
0 -7.20 l
o
np
224.04 91.44 m
0 -7.20 l
o
np
345.09 91.44 m
0 -7.20 l
o
np
466.15 91.44 m
0 -7.20 l
o
np
587.20 91.44 m
0 -7.20 l
o
np
708.25 91.44 m
0 -7.20 l
o
/Font1 findfont 12 s
102.99 65.52 (0e+00) .5 0 t
224.04 65.52 (2e+10) .5 0 t
345.09 65.52 (4e+10) .5 0 t
466.15 65.52 (6e+10) .5 0 t
587.20 65.52 (8e+10) .5 0 t
708.25 65.52 (1e+11) .5 0 t
np
77.04 107.25 m
0 395.18 l
o
np
77.04 107.25 m
-7.20 0 l
o
np
77.04 186.28 m
-7.20 0 l
o
np
77.04 265.32 m
-7.20 0 l
o
np
77.04 344.36 m
-7.20 0 l
o
np
77.04 423.39 m
-7.20 0 l
o
np
77.04 502.43 m
-7.20 0 l
o
59.76 107.25 (0.0) .5 90 t
59.76 186.28 (0.2) .5 90 t
59.76 265.32 (0.4) .5 90 t
59.76 344.36 (0.6) .5 90 t
59.76 423.39 (0.8) .5 90 t
59.76 502.43 (1.0) .5 90 t
np
 77.04 91.44 m
716.61 0 l
0 426.80 l
-716.61 0 l
cp p1
18.00 18.00 823.89 577.28 cl
/Font2 findfont 14 s
0 0 0 srgb
435.34 542.73 ( ) .5 0 t
/Font1 findfont 12 s
435.34 36.72 (V_diag \(\)) .5 0 t
30.96 283.83 (Ev) 90 ta
-0.300 (ent \(\)) tb gr
77.04 91.44 793.65 518.24 cl
0 0 0 srgb
0.75 setlinewidth
[] 0 setdash
1 setlinecap
1 setlinejoin
10.00 setmiterlimit
np
299.48 107.25 m
0 0 l
o
np
117.96 107.25 m
0 395.18 l
o
np
154.42 107.25 m
0 0 l
o
np
176.61 107.25 m
0 395.18 l
o
np
157.31 107.25 m
0 0 l
o
np
130.54 107.25 m
0 0 l
o
np
339.87 107.25 m
0 0 l
o
np
130.96 107.25 m
0 0 l
o
np
567.84 107.25 m
0 0 l
o
np
132.18 107.25 m
0 0 l
o
np
282.94 107.25 m
0 0 l
o
np
767.11 107.25 m
0 395.18 l
o
np
107.99 107.25 m
0 0 l
o
np
124.89 107.25 m
0 0 l
o
np
129.56 107.25 m
0 0 l
o
np
176.91 107.25 m
0 0 l
o
np
124.73 107.25 m
0 0 l
o
np
103.92 107.25 m
0 0 l
o
np
104.22 107.25 m
0 0 l
o
np
286.63 107.25 m
0 0 l
o
np
124.09 107.25 m
0 0 l
o
np
105.96 107.25 m
0 0 l
o
np
128.23 107.25 m
0 0 l
o
np
262.60 107.25 m
0 0 l
o
np
497.57 107.25 m
0 0 l
o
np
120.89 107.25 m
0 0 l
o
np
125.52 107.25 m
0 0 l
o
np
106.03 107.25 m
0 0 l
o
np
161.50 107.25 m
0 0 l
o
np
116.53 107.25 m
0 395.18 l
o
np
161.14 107.25 m
0 395.18 l
o
np
184.01 107.25 m
0 0 l
o
np
228.69 107.25 m
0 0 l
o
np
117.11 107.25 m
0 0 l
o
np
165.09 107.25 m
0 0 l
o
np
106.22 107.25 m
0 0 l
o
np
114.17 107.25 m
0 0 l
o
np
113.22 107.25 m
0 0 l
o
np
104.27 107.25 m
0 0 l
o
np
136.28 107.25 m
0 0 l
o
np
144.72 107.25 m
0 0 l
o
np
122.62 107.25 m
0 0 l
o
np
189.96 107.25 m
0 0 l
o
np
115.06 107.25 m
0 0 l
o
np
108.13 107.25 m
0 0 l
o
np
159.41 107.25 m
0 395.18 l
o
np
113.77 107.25 m
0 0 l
o
np
319.55 107.25 m
0 0 l
o
np
120.86 107.25 m
0 395.18 l
o
np
178.88 107.25 m
0 0 l
o
np
151.67 107.25 m
0 0 l
o
np
114.18 107.25 m
0 0 l
o
np
360.98 107.25 m
0 0 l
o
np
177.60 107.25 m
0 0 l
o
np
138.74 107.25 m
0 0 l
o
np
148.82 107.25 m
0 0 l
o
np
181.30 107.25 m
0 0 l
o
np
138.74 107.25 m
0 0 l
o
np
103.58 107.25 m
0 0 l
o
np
149.33 107.25 m
0 0 l
o
np
122.46 107.25 m
0 0 l
o
np
143.58 107.25 m
0 0 l
o
np
171.78 107.25 m
0 0 l
o
np
307.14 107.25 m
0 0 l
o
np
115.05 107.25 m
0 0 l
o
np
282.39 107.25 m
0 395.18 l
o
np
152.58 107.25 m
0 0 l
o
np
229.26 107.25 m
0 395.18 l
o
np
210.95 107.25 m
0 0 l
o
np
185.75 107.25 m
0 395.18 l
o
np
110.91 107.25 m
0 0 l
o
np
131.13 107.25 m
0 395.18 l
o
np
175.70 107.25 m
0 0 l
o
np
111.92 107.25 m
0 0 l
o
np
118.40 107.25 m
0 0 l
o
np
171.70 107.25 m
0 0 l
o
np
191.13 107.25 m
0 0 l
o
np
161.78 107.25 m
0 0 l
o
np
112.76 107.25 m
0 395.18 l
o
np
110.34 107.25 m
0 0 l
o
np
340.24 107.25 m
0 0 l
o
np
147.70 107.25 m
0 0 l
o
np
138.68 107.25 m
0 0 l
o
np
130.00 107.25 m
0 395.18 l
o
np
109.47 107.25 m
0 0 l
o
np
174.59 107.25 m
0 0 l
o
np
126.76 107.25 m
0 395.18 l
o
np
127.87 107.25 m
0 0 l
o
np
212.78 107.25 m
0 0 l
o
np
197.64 107.25 m
0 0 l
o
np
305.08 107.25 m
0 0 l
o
np
119.83 107.25 m
0 0 l
o
np
178.34 107.25 m
0 0 l
o
np
304.81 107.25 m
0 0 l
o
np
110.23 107.25 m
0 0 l
o
np
113.09 107.25 m
0 0 l
o
np
110.03 107.25 m
0 0 l
o
np
107.54 107.25 m
0 395.18 l
o
np
138.28 107.25 m
0 0 l
o
np
178.63 107.25 m
0 0 l
o
77.04 91.44 793.65 518.24 cl
ep
%%Page: 2 2
bp
56.97 346.11 266.67 538.31 cl
0 0 0 srgb
0.75 setlinewidth
[] 0 setdash
1 setlinecap
1 setlinejoin
10.00 setmiterlimit
np
64.73 356.33 m
0.56 0 l
0.55 0 l
0.56 0 l
0.55 0 l
0.56 0 l
0.55 0 l
0.56 0 l
0.55 0 l
0.56 0 l
0.55 0 l
0.56 0 l
0.55 0 l
0.56 0 l
0.55 0 l
0.55 0 l
0.56 0 l
0.55 0 l
0.56 0 l
0.55 0 l
0.56 0 l
0.55 0 l
0.56 0 l
0.55 0 l
0.56 0 l
0.55 0 l
0.56 0 l
0.55 0 l
0.56 0 l
0.55 0 l
0.56 0 l
0.55 0 l
0.56 0 l
0.55 0 l
0.56 0 l
0.55 0 l
0.56 0 l
0.55 0 l
0.55 0 l
0.56 0 l
0.55 0 l
0.56 0 l
0.55 0 l
0.56 0 l
0.55 0 l
0.56 0 l
0.55 0 l
0.56 0 l
0.55 0 l
0.56 0 l
0.55 0 l
0.56 -1.39 l
0.55 -1.71 l
0.56 0.39 l
0.55 0.72 l
0.56 0.88 l
0.55 3.20 l
0.56 0.99 l
0.55 1.03 l
0.56 1.09 l
0.55 -0.42 l
0.55 -0.54 l
0.56 -3.50 l
0.55 2.76 l
0.56 1.85 l
0.55 0.08 l
0.56 2.39 l
0.55 3.62 l
0.56 -1.10 l
0.55 1.53 l
0.56 0.80 l
0.55 3.02 l
0.56 1.75 l
0.55 8.61 l
0.56 0.15 l
0.55 -0.16 l
0.56 -4.93 l
0.55 9.16 l
0.56 1.63 l
0.55 5.82 l
0.56 -6.33 l
0.55 -2.71 l
0.55 3.12 l
0.56 -3.97 l
0.55 0.64 l
0.56 2.90 l
0.55 4.44 l
0.56 17.48 l
0.55 -3.38 l
0.56 1.20 l
0.55 3.34 l
0.56 32.39 l
0.55 18.02 l
0.56 7.37 l
0.55 15.86 l
0.56 -15.71 l
0.55 -17.78 l
0.56 -3.96 l
0.55 -16.48 l
0.56 6.85 l
120.21 437.29 lineto
0.56 24.39 l
0.55 -22.68 l
0.56 -18.12 l
0.55 -8.31 l
0.55 -14.11 l
0.56 -7.90 l
0.55 -6.63 l
0.56 1.46 l
0.55 13.17 l
0.56 4.27 l
0.55 -3.59 l
0.56 4.56 l
0.55 8.92 l
0.56 -16.24 l
0.55 -6.89 l
0.56 -9.73 l
0.55 -8.60 l
0.56 3.77 l
0.55 -1.27 l
0.56 -5.10 l
0.55 17.21 l
0.56 -3.29 l
0.55 -0.67 l
0.56 -1.20 l
0.55 -8.35 l
0.55 0.59 l
0.56 0.79 l
0.55 17.23 l
0.56 -2.55 l
0.55 -4.61 l
0.56 18.12 l
0.55 -4.11 l
0.56 0.89 l
0.55 15.81 l
0.56 -5.19 l
0.55 -10.31 l
0.56 -8.99 l
0.55 -0.15 l
0.56 -3.40 l
0.55 15.61 l
0.56 -11.72 l
0.55 -17.63 l
0.56 5.02 l
0.55 0.79 l
0.56 20.08 l
0.55 8.11 l
0.56 -10.71 l
0.55 -3.25 l
0.55 11.23 l
0.56 -19.71 l
0.55 4.92 l
0.56 -2.66 l
0.55 17.05 l
0.56 -18.64 l
0.55 4.99 l
0.56 -5.07 l
0.55 13.28 l
0.56 6.63 l
0.55 -5.78 l
0.56 3.54 l
0.55 27.40 l
0.56 8.59 l
0.55 5.41 l
0.56 11.99 l
0.55 -24.29 l
0.56 -5.48 l
0.55 8.11 l
0.56 3.74 l
0.55 -14.13 l
0.56 -7.84 l
0.55 -1.32 l
0.55 33.53 l
0.56 -18.51 l
0.55 5.10 l
0.56 17.97 l
0.55 8.50 l
0.56 -6.93 l
0.55 6.76 l
0.56 -23.56 l
0.55 -20.36 l
0.56 -19.27 l
0.55 3.08 l
0.56 -13.72 l
0.55 11.23 l
0.56 -0.69 l
0.55 -0.44 l
0.56 1.83 l
0.55 -10.03 l
0.56 5.61 l
0.55 7.25 l
0.56 -14.99 l
0.55 -4.05 l
0.55 -12.75 l
0.56 15.65 l
0.55 6.37 l
0.56 36.92 l
0.55 -18.54 l
0.56 3.38 l
0.55 -12.49 l
175.69 389.50 lineto
0.55 -15.01 l
0.56 -2.64 l
0.55 -1.27 l
0.56 26.21 l
0.55 31.78 l
0.56 -7.01 l
0.55 -4.28 l
0.56 -18.92 l
0.55 -27.22 l
0.56 -1.55 l
0.55 11.79 l
0.56 -2.46 l
0.55 3.50 l
0.56 30.00 l
0.55 5.56 l
0.55 -1.19 l
0.56 -4.64 l
0.55 -25.96 l
0.56 0.89 l
0.55 3.73 l
0.56 15.88 l
0.55 -10.06 l
0.56 25.86 l
0.55 -12.80 l
0.56 27.02 l
0.55 -8.94 l
0.56 -13.47 l
0.55 -10.15 l
0.56 -4.95 l
0.55 -18.91 l
0.56 -2.86 l
0.55 0.59 l
0.56 11.07 l
0.55 -5.75 l
0.56 0.81 l
0.55 -2.17 l
0.56 14.55 l
0.55 -1.20 l
0.55 -0.53 l
0.56 -2.04 l
0.55 6.17 l
0.56 -8.65 l
0.55 22.22 l
0.56 21.43 l
0.55 -7.36 l
0.56 -1.25 l
0.55 33.90 l
0.56 9.52 l
0.55 -14.10 l
0.56 -0.85 l
0.55 7.32 l
0.56 1.85 l
0.55 -0.93 l
0.56 10.88 l
0.55 -25.06 l
0.56 -45.71 l
0.55 -8.55 l
0.56 -4.56 l
0.55 -5.92 l
0.55 -10.16 l
0.56 13.50 l
0.55 -2.26 l
0.56 14.52 l
0.55 11.65 l
0.56 41.52 l
0.55 38.68 l
0.56 27.16 l
0.55 13.47 l
0.56 -46.21 l
0.55 -30.51 l
0.56 -0.75 l
0.55 -29.07 l
0.56 10.57 l
0.55 -16.50 l
0.56 17.99 l
0.55 17.50 l
0.56 -1.34 l
0.55 -6.75 l
0.56 14.50 l
0.55 -3.62 l
0.56 -17.09 l
0.55 -25.47 l
0.55 12.25 l
0.56 -6.23 l
0.55 14.64 l
0.56 5.69 l
0.55 48.61 l
0.56 0.02 l
0.55 20.56 l
0.56 -20.31 l
0.55 -26.28 l
0.56 41.07 l
0.55 -42.48 l
0.56 -25.49 l
0.55 25.92 l
0.56 7.22 l
0.55 18.55 l
0.56 -23.14 l
0.55 -16.08 l
231.17 480.77 lineto
0.55 -25.75 l
0.56 -14.43 l
0.55 4.93 l
0.55 -0.10 l
0.56 0.13 l
0.55 -5.15 l
0.56 2.73 l
0.55 -3.13 l
0.56 2.25 l
0.55 -2.35 l
0.56 0.80 l
0.55 -2.13 l
0.56 -1.99 l
0.55 -0.11 l
0.56 -0.30 l
0.55 -0.83 l
0.56 0.82 l
0.55 -0.63 l
0.56 -1.64 l
0.55 -2.45 l
0.56 -0.51 l
0.55 -0.91 l
0.56 -1.03 l
0.55 -1.24 l
0.56 0.71 l
0.55 0.68 l
0.55 -0.52 l
0.56 0.62 l
0.55 0.16 l
0.56 -0.11 l
0.55 0.46 l
0.56 -0.39 l
0.55 -0.45 l
0.56 0.58 l
0.55 0.10 l
0.56 0.02 l
0.55 0.18 l
0.56 -0.22 l
0.55 -0.40 l
0.56 -0.09 l
0.55 0.47 l
0.56 0.38 l
0.55 0.20 l
0.56 -0.14 l
0.55 -0.66 l
0.56 -0.08 l
0.55 -0.08 l
0.56 0.14 l
0.55 0.13 l
0.55 0.32 l
o
18.00 18.00 823.89 577.28 cl
0 0 0 srgb
0.75 setlinewidth
[] 0 setdash
1 setlinecap
1 setlinejoin
10.00 setmiterlimit
np
64.18 346.11 m
194.17 0 l
o
np
64.18 346.11 m
0 -4.75 l
o
np
91.92 346.11 m
0 -4.75 l
o
np
119.66 346.11 m
0 -4.75 l
o
np
147.39 346.11 m
0 -4.75 l
o
np
175.13 346.11 m
0 -4.75 l
o
np
202.87 346.11 m
0 -4.75 l
o
np
230.61 346.11 m
0 -4.75 l
o
np
258.35 346.11 m
0 -4.75 l
o
/Font1 findfont 8 s
64.18 329.00 (0) .5 0 t
91.92 329.00 (50) .5 0 t
119.66 329.00 (100) .5 0 t
147.39 329.00 (150) .5 0 t
175.13 329.00 (200) .5 0 t
202.87 329.00 (250) .5 0 t
230.61 329.00 (300) .5 0 t
258.35 329.00 (350) .5 0 t
np
56.97 379.91 m
0 141.46 l
o
np
56.97 379.91 m
-4.76 0 l
o
np
56.97 427.06 m
-4.76 0 l
o
np
56.97 474.21 m
-4.76 0 l
o
np
56.97 521.37 m
-4.76 0 l
o
45.56 379.91 (0.02) .5 90 t
45.56 427.06 (0.04) .5 90 t
45.56 474.21 (0.06) .5 90 t
45.56 521.37 (0.08) .5 90 t
np
 56.97 346.11 m
209.70 0 l
0 192.20 l
-209.70 0 l
cp p1
18.00 297.64 286.63 577.28 cl
/Font2 findfont 8 s
0 0 0 srgb
161.82 554.92 (alpha) .5 0 t
/Font1 findfont 8 s
147.37 309.99 (Iter) 0 ta
-0.080 (ation) tb gr
56.97 346.11 266.67 538.31 cl
0.5451 0 0 srgb
1.50 setlinewidth
[] 0 setdash
1 setlinecap
1 setlinejoin
10.00 setmiterlimit
np
230.61 346.11 m
0 192.20 l
o
325.60 346.11 535.30 538.31 cl
0 0 0 srgb
0.75 setlinewidth
[] 0 setdash
1 setlinecap
1 setlinejoin
10.00 setmiterlimit
np
333.36 364.68 m
0.56 0 l
0.55 0 l
0.56 0 l
0.55 0 l
0.56 0 l
0.55 0 l
0.56 0 l
0.55 0 l
0.56 0 l
0.55 0 l
0.56 0 l
0.55 0 l
0.56 0 l
0.55 0 l
0.55 0 l
0.56 0 l
0.55 0 l
0.56 0 l
0.55 0 l
0.56 0 l
0.55 0 l
0.56 0 l
0.55 0 l
0.56 0 l
0.55 0 l
0.56 0 l
0.55 0 l
0.56 0 l
0.55 0 l
0.56 0 l
0.55 0 l
0.56 0 l
0.55 0 l
0.56 0 l
0.55 0 l
0.56 0 l
0.55 0 l
0.55 0 l
0.56 0 l
0.55 0 l
0.56 0 l
0.55 0 l
0.56 0 l
0.55 0 l
0.56 0 l
0.55 0 l
0.56 0 l
0.55 0 l
0.56 0 l
0.55 0 l
0.56 3.84 l
0.55 3.09 l
0.56 4.80 l
0.55 7.78 l
0.56 10.45 l
0.55 -8.72 l
0.56 8.19 l
0.55 -12.48 l
0.55 2.72 l
0.56 2.75 l
0.55 7.83 l
0.56 4.31 l
0.55 -11.53 l
0.56 -6.62 l
0.55 6.18 l
0.56 26.40 l
0.55 -15.68 l
0.56 -0.40 l
0.55 17.33 l
0.56 -26.71 l
0.55 -12.36 l
0.56 11.47 l
0.55 7.41 l
0.56 7.46 l
0.55 -13.79 l
0.56 -11.94 l
0.55 0.97 l
0.56 -8.22 l
0.55 -3.16 l
0.56 6.17 l
0.55 -6.02 l
0.55 -3.48 l
0.56 8.52 l
0.55 17.79 l
0.56 -22.24 l
0.55 -5.63 l
0.56 1.28 l
0.55 -2.03 l
0.56 4.96 l
0.55 -5.49 l
0.56 7.68 l
0.55 -8.33 l
0.56 9.03 l
0.55 24.11 l
0.56 -15.91 l
0.55 -13.23 l
0.56 -3.53 l
0.55 -1.15 l
0.56 -1.32 l
388.84 354.04 lineto
0.56 2.18 l
0.55 3.83 l
0.56 -1.65 l
0.55 -2.97 l
0.55 4.11 l
0.56 -2.46 l
0.55 6.09 l
0.56 -6.68 l
0.55 -2.59 l
0.56 -0.26 l
0.55 4.19 l
0.56 -1.38 l
0.55 -2.37 l
0.56 -0.85 l
0.55 1.23 l
0.56 1.00 l
0.55 -0.82 l
0.56 -0.76 l
0.55 0.97 l
0.56 -0.18 l
0.55 2.04 l
0.56 0.98 l
0.55 0.55 l
0.56 8.39 l
0.55 -6.66 l
0.55 3.34 l
0.56 -3.43 l
0.55 -3.01 l
0.56 -1.17 l
0.55 5.11 l
0.56 -1.33 l
0.55 5.91 l
0.56 0.86 l
0.55 -3.18 l
0.56 0.68 l
0.55 -3.16 l
0.56 3.02 l
0.55 -4.22 l
0.56 -1.46 l
0.55 5.08 l
0.56 2.00 l
0.55 -1.32 l
0.56 4.00 l
0.55 11.46 l
0.56 -22.47 l
0.55 1.43 l
0.56 -0.31 l
0.55 2.09 l
0.55 1.89 l
0.56 -3.96 l
0.55 3.39 l
0.56 -0.01 l
0.55 -3.52 l
0.56 -1.17 l
0.55 3.27 l
0.56 -3.67 l
0.55 0.39 l
0.56 1.94 l
0.55 10.52 l
0.56 -6.06 l
0.55 -3.69 l
0.56 2.30 l
0.55 -4.73 l
0.56 5.30 l
0.55 4.96 l
0.56 9.12 l
0.55 -1.27 l
0.56 -3.42 l
0.55 -6.32 l
0.56 -0.12 l
0.55 0.35 l
0.55 -2.62 l
0.56 1.64 l
0.55 -1.08 l
0.56 5.15 l
0.55 -3.64 l
0.56 12.50 l
0.55 2.20 l
0.56 -8.23 l
0.55 3.51 l
0.56 -0.33 l
0.55 -6.08 l
0.56 -6.45 l
0.55 6.43 l
0.56 -7.07 l
0.55 4.18 l
0.56 1.63 l
0.55 4.12 l
0.56 3.60 l
0.55 -9.36 l
0.56 13.83 l
0.55 -0.60 l
0.55 7.02 l
0.56 2.88 l
0.55 34.04 l
0.56 -1.27 l
0.55 -33.68 l
0.56 25.03 l
0.55 -1.95 l
444.32 391.98 lineto
0.55 15.04 l
0.56 -5.35 l
0.55 -2.21 l
0.56 31.29 l
0.55 2.02 l
0.56 55.83 l
0.55 -58.06 l
0.56 15.26 l
0.55 -25.36 l
0.56 -0.45 l
0.55 19.41 l
0.56 17.64 l
0.55 -17.52 l
0.56 -31.77 l
0.55 -5.32 l
0.55 3.69 l
0.56 -0.66 l
0.55 -13.74 l
0.56 -1.78 l
0.55 26.41 l
0.56 -1.44 l
0.55 4.90 l
0.56 25.02 l
0.55 -21.88 l
0.56 2.10 l
0.55 -11.81 l
0.56 4.71 l
0.55 -1.63 l
0.56 22.02 l
0.55 6.89 l
0.56 -32.57 l
0.55 9.99 l
0.56 -3.70 l
0.55 1.77 l
0.56 -8.59 l
0.55 15.08 l
0.55 -12.42 l
0.56 -3.24 l
0.55 103.18 l
0.56 9.11 l
0.55 7.35 l
0.56 -64.40 l
0.55 -15.20 l
0.56 -3.23 l
0.55 -23.82 l
0.56 -22.25 l
0.55 2.45 l
0.56 44.98 l
0.55 -40.92 l
0.56 -19.63 l
0.55 9.02 l
0.56 -17.47 l
0.55 -0.64 l
0.56 -9.74 l
0.55 -1.02 l
0.56 4.52 l
0.55 0.95 l
0.56 -9.93 l
0.55 14.96 l
0.55 -9.29 l
0.56 7.08 l
0.55 15.13 l
0.56 7.08 l
0.55 0.90 l
0.56 24.00 l
0.55 -8.00 l
0.56 12.76 l
0.55 -0.81 l
0.56 -25.59 l
0.55 -18.51 l
0.56 -3.57 l
0.55 -6.39 l
0.56 -1.24 l
0.55 -5.02 l
0.56 -1.94 l
0.55 -1.91 l
0.56 -1.55 l
0.55 -5.18 l
0.56 8.21 l
0.55 7.93 l
0.56 7.94 l
0.55 -15.19 l
0.55 -7.03 l
0.56 -4.90 l
0.55 -0.39 l
0.56 3.00 l
0.55 0.31 l
0.56 -1.01 l
0.55 0.45 l
0.56 3.76 l
0.55 6.62 l
0.56 -3.07 l
0.55 -3.39 l
0.56 10.73 l
0.55 -9.03 l
0.56 -4.67 l
0.55 -3.07 l
0.56 0.68 l
0.55 -1.22 l
499.80 355.32 lineto
0.55 0.49 l
0.56 0.55 l
0.55 1.67 l
0.55 1.23 l
0.56 0.27 l
0.55 -0.50 l
0.56 -0.30 l
0.55 -0.47 l
0.56 0.10 l
0.55 0.01 l
0.56 0.59 l
0.55 -0.08 l
0.56 0.07 l
0.55 -0.19 l
0.56 0.21 l
0.55 0.18 l
0.56 0.16 l
0.55 -0.10 l
0.56 0.14 l
0.55 0.04 l
0.56 0.02 l
0.55 0.18 l
0.56 0.09 l
0.55 0.03 l
0.56 0.07 l
0.55 -0.09 l
0.55 0.14 l
0.56 -0.06 l
0.55 -0.02 l
0.56 -0.12 l
0.55 -0.09 l
0.56 -0.11 l
0.55 -0.07 l
0.56 0.03 l
0.55 0.17 l
0.56 -0.08 l
0.55 0.08 l
0.56 -0.05 l
0.55 0.04 l
0.56 -0.03 l
0.55 -0.03 l
0.56 0.06 l
0.55 0.19 l
0.56 -0.03 l
0.55 -0.04 l
0.56 0.04 l
0.55 0.10 l
0.56 -0.07 l
0.55 0.11 l
0.55 -0.02 l
o
18.00 18.00 823.89 577.28 cl
0 0 0 srgb
0.75 setlinewidth
[] 0 setdash
1 setlinecap
1 setlinejoin
10.00 setmiterlimit
np
332.81 346.11 m
194.17 0 l
o
np
332.81 346.11 m
0 -4.75 l
o
np
360.55 346.11 m
0 -4.75 l
o
np
388.29 346.11 m
0 -4.75 l
o
np
416.02 346.11 m
0 -4.75 l
o
np
443.76 346.11 m
0 -4.75 l
o
np
471.50 346.11 m
0 -4.75 l
o
np
499.24 346.11 m
0 -4.75 l
o
np
526.98 346.11 m
0 -4.75 l
o
/Font1 findfont 8 s
332.81 329.00 (0) .5 0 t
360.55 329.00 (50) .5 0 t
388.29 329.00 (100) .5 0 t
416.02 329.00 (150) .5 0 t
443.76 329.00 (200) .5 0 t
471.50 329.00 (250) .5 0 t
499.24 329.00 (300) .5 0 t
526.98 329.00 (350) .5 0 t
np
325.60 351.96 m
0 178.05 l
o
np
325.60 351.96 m
-4.76 0 l
o
np
325.60 377.40 m
-4.76 0 l
o
np
325.60 402.83 m
-4.76 0 l
o
np
325.60 428.27 m
-4.76 0 l
o
np
325.60 453.70 m
-4.76 0 l
o
np
325.60 479.14 m
-4.76 0 l
o
np
325.60 504.57 m
-4.76 0 l
o
np
325.60 530.01 m
-4.76 0 l
o
314.19 351.96 (0.0e+00) .5 90 t
314.19 402.83 (4.0e-14) .5 90 t
314.19 453.70 (8.0e-14) .5 90 t
314.19 504.57 (1.2e-13) .5 90 t
np
 325.60 346.11 m
209.70 0 l
0 192.20 l
-209.70 0 l
cp p1
286.63 297.64 555.26 577.28 cl
/Font2 findfont 8 s
0 0 0 srgb
424.45 554.92 (m) 0 ta
-0.160 (u) tb gr
/Font1 findfont 8 s
416.00 309.99 (Iter) 0 ta
-0.080 (ation) tb gr
325.60 346.11 535.30 538.31 cl
0.5451 0 0 srgb
1.50 setlinewidth
[] 0 setdash
1 setlinecap
1 setlinejoin
10.00 setmiterlimit
np
499.24 346.11 m
0 192.20 l
o
594.23 346.11 803.93 538.31 cl
0 0 0 srgb
0.75 setlinewidth
[] 0 setdash
1 setlinecap
1 setlinejoin
10.00 setmiterlimit
np
601.99 361.85 m
0.56 0 l
0.55 0 l
0.56 0 l
0.55 0 l
0.56 0 l
0.55 0 l
0.56 0 l
0.55 0 l
0.56 0 l
0.55 0 l
0.56 0 l
0.55 0 l
0.56 0 l
0.55 0 l
0.55 0 l
0.56 0 l
0.55 0 l
0.56 0 l
0.55 0 l
0.56 0 l
0.55 0 l
0.56 0 l
0.55 0 l
0.56 0 l
0.55 0 l
0.56 0 l
0.55 0 l
0.56 0 l
0.55 0 l
0.56 0 l
0.55 0 l
0.56 0 l
0.55 0 l
0.56 0 l
0.55 0 l
0.56 0 l
0.55 0 l
0.55 0 l
0.56 0 l
0.55 0 l
0.56 0 l
0.55 0 l
0.56 0 l
0.55 0 l
0.56 0 l
0.55 0 l
0.56 0 l
0.55 0 l
0.56 0 l
0.55 0 l
0.56 1.39 l
0.55 5.20 l
0.56 5.15 l
0.55 0.35 l
0.56 3.64 l
0.55 11.05 l
0.56 13.44 l
0.55 19.14 l
0.55 7.88 l
0.56 11.93 l
0.55 11.09 l
0.56 -7.60 l
0.55 4.82 l
0.56 6.39 l
0.55 -8.39 l
0.56 12.20 l
0.55 5.75 l
0.56 4.19 l
0.55 -3.92 l
0.56 2.23 l
0.55 12.72 l
0.56 14.54 l
0.55 3.21 l
0.56 -2.05 l
0.55 -9.10 l
0.56 -6.13 l
0.55 4.81 l
0.56 -12.24 l
0.55 2.09 l
0.56 -0.20 l
0.55 11.39 l
0.55 0.91 l
0.56 7.24 l
0.55 6.45 l
0.56 7.23 l
0.55 2.91 l
0.56 3.62 l
0.55 -0.36 l
0.56 -5.17 l
0.55 -2.12 l
0.56 14.14 l
0.55 3.73 l
0.56 5.79 l
0.55 -8.79 l
0.56 -4.94 l
0.55 -2.32 l
0.56 -7.87 l
0.55 -13.95 l
0.56 3.40 l
657.47 486.97 lineto
0.56 -2.38 l
0.55 7.24 l
0.55 -5.22 l
0.56 -1.57 l
0.55 4.54 l
0.56 5.21 l
0.55 0.49 l
0.56 3.43 l
0.55 -0.87 l
0.56 0.60 l
0.55 3.44 l
0.56 -5.83 l
0.55 0.49 l
0.56 -3.93 l
0.55 4.53 l
0.56 -3.69 l
0.55 2.36 l
0.56 -5.67 l
0.55 4.28 l
0.56 0.82 l
0.55 0.56 l
0.56 0.51 l
0.55 4.14 l
0.56 -1.15 l
0.55 -1.78 l
0.55 1.35 l
0.56 0.18 l
0.55 0.14 l
0.56 5.32 l
0.55 4.72 l
0.56 -1.83 l
0.55 -2.79 l
0.56 -0.08 l
0.55 3.65 l
0.56 3.02 l
0.55 -0.25 l
0.56 2.86 l
0.55 -1.45 l
0.56 2.42 l
0.55 -1.67 l
0.56 -3.33 l
0.55 0.92 l
0.56 1.47 l
0.55 -0.63 l
0.56 -3.75 l
0.55 -1.34 l
0.56 2.90 l
0.55 -0.32 l
0.55 -1.20 l
0.56 -50.31 l
0.55 -20.88 l
0.56 11.71 l
0.55 8.60 l
0.56 -6.20 l
0.55 20.09 l
0.56 -14.04 l
0.55 12.22 l
0.56 -8.73 l
0.55 -9.66 l
0.56 2.73 l
0.55 1.37 l
0.56 1.83 l
0.55 -33.50 l
0.56 7.06 l
0.55 2.46 l
0.56 -22.32 l
0.55 -0.10 l
0.56 8.52 l
0.55 -9.24 l
0.55 -7.62 l
0.56 -1.43 l
0.55 3.11 l
0.56 16.52 l
0.55 -6.76 l
0.56 -23.03 l
0.55 -3.40 l
0.56 12.62 l
0.55 6.97 l
0.56 6.76 l
0.55 18.87 l
0.56 9.88 l
0.55 6.11 l
0.56 -20.25 l
0.55 -14.19 l
0.56 17.87 l
0.55 12.97 l
0.56 -3.91 l
0.55 -6.16 l
0.56 -7.42 l
0.55 -7.76 l
0.56 3.81 l
0.55 -6.49 l
0.55 2.93 l
0.56 5.64 l
0.55 -8.72 l
0.56 4.49 l
0.55 9.57 l
0.56 23.36 l
0.55 24.25 l
712.95 470.75 lineto
0.55 -16.89 l
0.56 -18.06 l
0.55 7.16 l
0.56 0.66 l
0.55 -5.69 l
0.56 3.54 l
0.55 -2.92 l
0.56 -20.88 l
0.55 1.31 l
0.56 1.52 l
0.55 -0.20 l
0.56 2.88 l
0.55 2.72 l
0.56 -5.92 l
0.55 -6.21 l
0.55 15.66 l
0.56 3.88 l
0.55 12.80 l
0.56 21.25 l
0.55 -25.36 l
0.56 12.61 l
0.55 1.82 l
0.56 12.72 l
0.55 37.53 l
0.56 7.63 l
0.55 -35.98 l
0.56 -10.55 l
0.55 13.26 l
0.56 4.28 l
0.55 -27.64 l
0.56 -14.11 l
0.55 -10.47 l
0.56 4.15 l
0.55 -11.88 l
0.56 2.52 l
0.55 0.21 l
0.55 4.85 l
0.56 13.27 l
0.55 -24.93 l
0.56 -23.03 l
0.55 1.06 l
0.56 0.63 l
0.55 -0.45 l
0.56 1.07 l
0.55 -3.46 l
0.56 -13.33 l
0.55 -7.98 l
0.56 -0.49 l
0.55 0.19 l
0.56 -4.49 l
0.55 -8.59 l
0.56 1.30 l
0.55 -0.96 l
0.56 -1.29 l
0.55 0 l
0.56 0.57 l
0.55 -0.47 l
0.56 -0.90 l
0.55 0.18 l
0.55 0 l
0.56 4.41 l
0.55 -0.08 l
0.56 0.08 l
0.55 0.29 l
0.56 0.08 l
0.55 -0.21 l
0.56 -1.54 l
0.55 0.15 l
0.56 -2.19 l
0.55 0.22 l
0.56 2.17 l
0.55 1.43 l
0.56 -0.10 l
0.55 0.05 l
0.56 -0.97 l
0.55 -2.15 l
0.56 -1.16 l
0.55 -1.25 l
0.56 0.55 l
0.55 2.48 l
0.56 -4.71 l
0.55 -0.54 l
0.55 0.50 l
0.56 -2.18 l
0.55 0.79 l
0.56 -0.04 l
0.55 -0.96 l
0.56 0.06 l
0.55 -0.08 l
0.56 0.11 l
0.55 -1.49 l
0.56 0.25 l
0.55 -0.28 l
0.56 1.98 l
0.55 0 l
0.56 0.63 l
0.55 3.13 l
0.56 1.51 l
0.55 -1.84 l
768.43 359.95 lineto
0.55 0.36 l
0.56 -1.88 l
0.55 -0.35 l
0.55 -0.25 l
0.56 -0.41 l
0.55 -0.03 l
0.56 -0.17 l
0.55 -0.25 l
0.56 -0.18 l
0.55 -0.17 l
0.56 -0.09 l
0.55 -0.03 l
0.56 -0.02 l
0.55 -0.02 l
0.56 -0.02 l
0.55 -0.03 l
0.56 -0.01 l
0.55 -0.07 l
0.56 0.01 l
0.55 -0.09 l
0.56 -0.35 l
0.55 -0.30 l
0.56 -0.26 l
0.55 -0.17 l
0.56 -0.15 l
0.55 -0.14 l
0.55 -0.20 l
0.56 -0.18 l
0.55 -0.17 l
0.56 -0.15 l
0.55 -0.14 l
0.56 -0.10 l
0.55 -0.09 l
0.56 -0.08 l
0.55 -0.09 l
0.56 0 l
0.55 -0.01 l
0.56 0 l
0.55 -0.01 l
0.56 -0.02 l
0.55 -0.01 l
0.56 -0.10 l
0.55 -0.10 l
0.56 -0.07 l
0.55 -0.02 l
0.56 -0.02 l
0.55 -0.02 l
0.55 -0.03 l
0.56 -0.03 l
0.55 -0.01 l
o
18.00 18.00 823.89 577.28 cl
0 0 0 srgb
0.75 setlinewidth
[] 0 setdash
1 setlinecap
1 setlinejoin
10.00 setmiterlimit
np
601.44 346.11 m
194.17 0 l
o
np
601.44 346.11 m
0 -4.75 l
o
np
629.18 346.11 m
0 -4.75 l
o
np
656.92 346.11 m
0 -4.75 l
o
np
684.65 346.11 m
0 -4.75 l
o
np
712.39 346.11 m
0 -4.75 l
o
np
740.13 346.11 m
0 -4.75 l
o
np
767.87 346.11 m
0 -4.75 l
o
np
795.61 346.11 m
0 -4.75 l
o
/Font1 findfont 8 s
601.44 329.00 (0) .5 0 t
629.18 329.00 (50) .5 0 t
656.92 329.00 (100) .5 0 t
684.65 329.00 (150) .5 0 t
712.39 329.00 (200) .5 0 t
740.13 329.00 (250) .5 0 t
767.87 329.00 (300) .5 0 t
795.61 329.00 (350) .5 0 t
np
594.23 382.24 m
0 122.37 l
o
np
594.23 382.24 m
-4.76 0 l
o
np
594.23 423.03 m
-4.76 0 l
o
np
594.23 463.82 m
-4.76 0 l
o
np
594.23 504.61 m
-4.76 0 l
o
582.82 382.24 (0.1) .5 90 t
582.82 423.03 (0.2) .5 90 t
582.82 463.82 (0.3) .5 90 t
582.82 504.61 (0.4) .5 90 t
np
 594.23 346.11 m
209.70 0 l
0 192.20 l
-209.70 0 l
cp p1
555.26 297.64 823.89 577.28 cl
/Font2 findfont 8 s
0 0 0 srgb
699.08 554.92 (sigma) .5 0 t
/Font1 findfont 8 s
684.63 309.99 (Iter) 0 ta
-0.080 (ation) tb gr
594.23 346.11 803.93 538.31 cl
0.5451 0 0 srgb
1.50 setlinewidth
[] 0 setdash
1 setlinecap
1 setlinejoin
10.00 setmiterlimit
np
767.87 346.11 m
0 192.20 l
o
56.97 66.47 266.67 258.67 cl
0 0 0 srgb
0.75 setlinewidth
[] 0 setdash
1 setlinecap
1 setlinejoin
10.00 setmiterlimit
np
64.73 75.60 m
0.56 0 l
0.55 0 l
0.56 0 l
0.55 0 l
0.56 0 l
0.55 0 l
0.56 0 l
0.55 0 l
0.56 0 l
0.55 0 l
0.56 0 l
0.55 0 l
0.56 0 l
0.55 0 l
0.55 0 l
0.56 0 l
0.55 0 l
0.56 0 l
0.55 0 l
0.56 0 l
0.55 0 l
0.56 0 l
0.55 0 l
0.56 0 l
0.55 0 l
0.56 0 l
0.55 0 l
0.56 0 l
0.55 0 l
0.56 0 l
0.55 0 l
0.56 0 l
0.55 0 l
0.56 0 l
0.55 0 l
0.56 0 l
0.55 0 l
0.55 0 l
0.56 0 l
0.55 0 l
0.56 0 l
0.55 0 l
0.56 0 l
0.55 0 l
0.56 0 l
0.55 0 l
0.56 0 l
0.55 0 l
0.56 0 l
0.55 0 l
0.56 -0.36 l
0.55 0.01 l
0.56 -0.20 l
0.55 -0.34 l
0.56 0.51 l
0.55 -0.35 l
0.56 -0.34 l
0.55 -0.33 l
0.56 0.02 l
0.55 -0.32 l
0.55 -0.31 l
0.56 0.93 l
0.55 -0.33 l
0.56 1.18 l
0.55 0.68 l
0.56 0.02 l
0.55 1.26 l
0.56 -0.41 l
0.55 0.94 l
0.56 1.01 l
0.55 -0.09 l
0.56 0.94 l
0.55 -0.48 l
0.56 -0.47 l
0.55 0.14 l
0.56 6.22 l
0.55 2.31 l
0.56 -0.71 l
0.55 1.94 l
0.56 1.98 l
0.55 -0.81 l
0.55 7.88 l
0.56 4.98 l
0.55 3.06 l
0.56 -1.26 l
0.55 3.44 l
0.56 -1.33 l
0.55 7.33 l
0.56 1.80 l
0.55 -1.57 l
0.56 -1.51 l
0.55 4.35 l
0.56 6.06 l
0.55 9.83 l
0.56 3.70 l
0.55 9.59 l
0.56 2.97 l
0.55 4.70 l
0.56 -2.70 l
120.21 158.33 lineto
0.56 14.81 l
0.55 -3.28 l
0.56 23.54 l
0.55 -3.89 l
0.55 -3.78 l
0.56 -3.66 l
0.55 -3.56 l
0.56 10.63 l
0.55 -0.31 l
0.56 -3.76 l
0.55 24.12 l
0.56 -4.37 l
0.55 -4.23 l
0.56 -4.11 l
0.55 25.39 l
0.56 -4.75 l
0.55 -4.60 l
0.56 -4.47 l
0.55 11.65 l
0.56 -4.68 l
0.55 10.77 l
0.56 10.80 l
0.55 2.21 l
0.56 -2.55 l
0.55 -5.18 l
0.55 19.06 l
0.56 -5.59 l
0.55 2.63 l
0.56 -5.51 l
0.55 -5.34 l
0.56 -5.19 l
0.55 8.82 l
0.56 11.60 l
0.55 -5.64 l
0.56 -5.47 l
0.55 -5.30 l
0.56 -0.12 l
0.55 -3.03 l
0.56 -5.05 l
0.55 -1.47 l
0.56 -4.85 l
0.55 -4.71 l
0.56 -1.46 l
0.55 -4.53 l
0.56 29.68 l
0.55 -5.28 l
0.56 -5.13 l
0.55 -4.96 l
0.55 -4.82 l
0.56 -4.68 l
0.55 -28.11 l
0.56 -2.57 l
0.55 10.13 l
0.56 -22.09 l
0.55 -16.99 l
0.56 -8.90 l
0.55 -15.85 l
0.56 4.74 l
0.55 -4.60 l
0.56 -9.78 l
0.55 0.48 l
0.56 -5.18 l
0.55 3.53 l
0.56 3.64 l
0.55 -7.03 l
0.56 -14.22 l
0.55 0.39 l
0.56 4.47 l
0.55 -4.62 l
0.56 7.60 l
0.55 7.35 l
0.55 8.03 l
0.56 -4.61 l
0.55 7.51 l
0.56 19.99 l
0.55 -0.32 l
0.56 -7.40 l
0.55 1.14 l
0.56 3.04 l
0.55 29.35 l
0.56 3.52 l
0.55 9.96 l
0.56 -15.11 l
0.55 10.13 l
0.56 19.68 l
0.55 -2.97 l
0.56 -7.68 l
0.55 9.38 l
0.56 -14.76 l
0.55 -4.46 l
0.56 8.18 l
0.55 16.43 l
0.55 -2.51 l
0.56 -4.55 l
0.55 23.15 l
0.56 -48.55 l
0.55 3.97 l
0.56 11.45 l
0.55 -4.93 l
175.69 216.09 lineto
0.55 -1.31 l
0.56 -23.53 l
0.55 -0.82 l
0.56 9.56 l
0.55 25.27 l
0.56 16.59 l
0.55 -41.68 l
0.56 3.04 l
0.55 35.10 l
0.56 -41.47 l
0.55 0.65 l
0.56 -2.50 l
0.55 16.71 l
0.56 -4.48 l
0.55 -21.04 l
0.55 -32.33 l
0.56 11.25 l
0.55 23.02 l
0.56 -0.55 l
0.55 37.08 l
0.56 -3.84 l
0.55 -15.09 l
0.56 -15.01 l
0.55 -1.71 l
0.56 22.39 l
0.55 -12.69 l
0.56 -16.79 l
0.55 -8.22 l
0.56 20.38 l
0.55 -1.11 l
0.56 -5.76 l
0.55 0.62 l
0.56 10.10 l
0.55 -8.13 l
0.56 -15.49 l
0.55 10.11 l
0.56 -4.06 l
0.55 -5.08 l
0.55 -4.39 l
0.56 16.28 l
0.55 -0.63 l
0.56 5.74 l
0.55 -3.49 l
0.56 9.51 l
0.55 11.00 l
0.56 -15.31 l
0.55 -8.09 l
0.56 -12.46 l
0.55 3.33 l
0.56 11.72 l
0.55 -18.24 l
0.56 -0.59 l
0.55 -5.36 l
0.56 38.29 l
0.55 7.27 l
0.56 -16.68 l
0.55 0.64 l
0.56 4.36 l
0.55 -9.73 l
0.55 3.19 l
0.56 3.00 l
0.55 -12.15 l
0.56 0.34 l
0.55 -9.60 l
0.56 -18.80 l
0.55 22.00 l
0.56 -18.56 l
0.55 15.65 l
0.56 -20.18 l
0.55 23.48 l
0.56 -0.23 l
0.55 -15.80 l
0.56 -1.78 l
0.55 -3.79 l
0.56 -0.40 l
0.55 14.76 l
0.56 -1.19 l
0.55 5.57 l
0.56 6.26 l
0.55 -17.72 l
0.56 -10.49 l
0.55 -4.60 l
0.55 3.71 l
0.56 -15.24 l
0.55 24.11 l
0.56 11.67 l
0.55 14.05 l
0.56 -5.78 l
0.55 21.48 l
0.56 -1.58 l
0.55 0.12 l
0.56 -36.52 l
0.55 17.61 l
0.56 16.09 l
0.55 -13.28 l
0.56 -2.37 l
0.55 -17.91 l
0.56 -10.30 l
0.55 -0.36 l
231.17 137.08 lineto
0.55 17.80 l
0.56 3.82 l
0.55 1.55 l
0.55 1.27 l
0.56 2.37 l
0.55 -2.83 l
0.56 0.80 l
0.55 4.86 l
0.56 3.12 l
0.55 0.09 l
0.56 -0.61 l
0.55 -0.21 l
0.56 0.47 l
0.55 0.34 l
0.56 1.25 l
0.55 0.69 l
0.56 -0.27 l
0.55 0.74 l
0.56 1.30 l
0.55 -0.29 l
0.56 0.57 l
0.55 -1.08 l
0.56 0.58 l
0.55 0.55 l
0.56 0.54 l
0.55 0.58 l
0.55 0.50 l
0.56 -0.61 l
0.55 -0.42 l
0.56 -0.45 l
0.55 -0.58 l
0.56 -0.01 l
0.55 0.27 l
0.56 0.08 l
0.55 0.14 l
0.56 -0.54 l
0.55 -0.16 l
0.56 -0.09 l
0.55 0.23 l
0.56 -0.24 l
0.55 -0.15 l
0.56 -0.11 l
0.55 -0.42 l
0.56 -0.13 l
0.55 -0.42 l
0.56 0.22 l
0.55 -0.08 l
0.56 0.25 l
0.55 -0.01 l
0.55 -0.21 l
o
18.00 18.00 823.89 577.28 cl
0 0 0 srgb
0.75 setlinewidth
[] 0 setdash
1 setlinecap
1 setlinejoin
10.00 setmiterlimit
np
64.18 66.47 m
194.17 0 l
o
np
64.18 66.47 m
0 -4.75 l
o
np
91.92 66.47 m
0 -4.75 l
o
np
119.66 66.47 m
0 -4.75 l
o
np
147.39 66.47 m
0 -4.75 l
o
np
175.13 66.47 m
0 -4.75 l
o
np
202.87 66.47 m
0 -4.75 l
o
np
230.61 66.47 m
0 -4.75 l
o
np
258.35 66.47 m
0 -4.75 l
o
/Font1 findfont 8 s
64.18 49.36 (0) .5 0 t
91.92 49.36 (50) .5 0 t
119.66 49.36 (100) .5 0 t
147.39 49.36 (150) .5 0 t
175.13 49.36 (200) .5 0 t
202.87 49.36 (250) .5 0 t
230.61 49.36 (300) .5 0 t
258.35 49.36 (350) .5 0 t
np
56.97 111.59 m
0 143.99 l
o
np
56.97 111.59 m
-4.76 0 l
o
np
56.97 159.59 m
-4.76 0 l
o
np
56.97 207.59 m
-4.76 0 l
o
np
56.97 255.58 m
-4.76 0 l
o
45.56 111.59 (2) .5 90 t
45.56 159.59 (4) .5 90 t
45.56 207.59 (6) .5 90 t
45.56 255.58 (8) .5 90 t
np
 56.97 66.47 m
209.70 0 l
0 192.20 l
-209.70 0 l
cp p1
18.00 18.00 286.63 297.64 cl
/Font2 findfont 8 s
0 0 0 srgb
161.82 275.28 (omega2.alpha) .5 0 t
/Font1 findfont 8 s
147.37 30.36 (Iter) 0 ta
-0.080 (ation) tb gr
56.97 66.47 266.67 258.67 cl
0.5451 0 0 srgb
1.50 setlinewidth
[] 0 setdash
1 setlinecap
1 setlinejoin
10.00 setmiterlimit
np
230.61 66.47 m
0 192.20 l
o
325.60 66.47 535.30 258.67 cl
0 0 0 srgb
0.75 setlinewidth
[] 0 setdash
1 setlinecap
1 setlinejoin
10.00 setmiterlimit
np
333.36 73.59 m
0.56 0 l
0.55 0 l
0.56 0 l
0.55 0 l
0.56 0 l
0.55 0 l
0.56 0 l
0.55 0 l
0.56 0 l
0.55 0 l
0.56 0 l
0.55 0 l
0.56 0 l
0.55 0 l
0.55 0 l
0.56 0 l
0.55 0 l
0.56 0 l
0.55 0 l
0.56 0 l
0.55 0 l
0.56 0 l
0.55 0 l
0.56 0 l
0.55 0 l
0.56 0 l
0.55 0 l
0.56 0 l
0.55 0 l
0.56 0 l
0.55 0 l
0.56 0 l
0.55 0 l
0.56 0 l
0.55 0 l
0.56 0 l
0.55 0 l
0.55 0 l
0.56 0 l
0.55 0 l
0.56 0 l
0.55 0 l
0.56 0 l
0.55 0 l
0.56 0 l
0.55 0 l
0.56 0 l
0.55 0 l
0.56 0 l
0.55 0 l
0.56 3.72 l
0.55 3.47 l
0.56 3.26 l
0.55 6.24 l
0.56 -0.53 l
0.55 7.71 l
0.56 -0.78 l
0.55 0.04 l
0.55 1.17 l
0.56 -0.80 l
0.55 1.53 l
0.56 5.54 l
0.55 6.99 l
0.56 7.25 l
0.55 2.36 l
0.56 -1.48 l
0.55 4.67 l
0.56 5.98 l
0.55 -1.31 l
0.56 0.76 l
0.55 12.16 l
0.56 -2.10 l
0.55 -2.04 l
0.56 -1.98 l
0.55 8.31 l
0.56 -2.17 l
0.55 -2.10 l
0.56 7.94 l
0.55 -2.27 l
0.56 5.41 l
0.55 11.72 l
0.55 14.53 l
0.56 -3.16 l
0.55 -2.88 l
0.56 -2.97 l
0.55 -2.89 l
0.56 9.59 l
0.55 14.96 l
0.56 -3.53 l
0.55 0.12 l
0.56 3.26 l
0.55 -3.53 l
0.56 -3.43 l
0.55 -3.33 l
0.56 -3.08 l
0.55 -3.13 l
0.56 9.50 l
0.55 -2.27 l
0.56 22.14 l
388.84 218.16 lineto
0.56 -4.40 l
0.55 -4.27 l
0.56 3.68 l
0.55 13.24 l
0.55 -4.65 l
0.56 19.89 l
0.55 -1.52 l
0.56 -5.06 l
0.55 4.74 l
0.56 6.08 l
0.55 -5.23 l
0.56 -5.08 l
0.55 15.60 l
0.56 -5.39 l
0.55 -5.23 l
0.56 -5.07 l
0.55 -4.92 l
0.56 -4.77 l
0.55 -4.63 l
0.56 6.60 l
0.55 -4.69 l
0.56 -1.00 l
0.55 -3.71 l
0.56 -3.30 l
0.55 -4.30 l
0.55 -4.18 l
0.56 5.63 l
0.55 -4.22 l
0.56 -4.10 l
0.55 6.07 l
0.56 -4.16 l
0.55 1.43 l
0.56 -3.55 l
0.55 -3.96 l
0.56 -3.85 l
0.55 -3.73 l
0.56 0.33 l
0.55 7.71 l
0.56 -1.65 l
0.55 -3.81 l
0.56 -3.70 l
0.55 -0.01 l
0.56 0.87 l
0.55 -3.61 l
0.56 26.20 l
0.55 5.49 l
0.56 9.17 l
0.55 9.61 l
0.55 -5.02 l
0.56 -4.87 l
0.55 -20.87 l
0.56 12.76 l
0.55 -11.37 l
0.56 17.55 l
0.55 -37.35 l
0.56 -6.13 l
0.55 -2.15 l
0.56 6.56 l
0.55 -5.97 l
0.56 12.80 l
0.55 -9.82 l
0.56 16.55 l
0.55 -6.45 l
0.56 -6.87 l
0.55 4.91 l
0.56 -9.75 l
0.55 -18.02 l
0.56 8.35 l
0.55 7.55 l
0.56 -14.31 l
0.55 10.86 l
0.55 -8.18 l
0.56 4.99 l
0.55 9.62 l
0.56 11.66 l
0.55 -16.22 l
0.56 -17.23 l
0.55 -1.53 l
0.56 2.71 l
0.55 0.87 l
0.56 -4.46 l
0.55 7.75 l
0.56 -5.32 l
0.55 4.44 l
0.56 7.41 l
0.55 0.66 l
0.56 18.25 l
0.55 13.52 l
0.56 -42.54 l
0.55 -7.44 l
0.56 -6.81 l
0.55 -2.43 l
0.55 -13.74 l
0.56 5.84 l
0.55 -4.39 l
0.56 -10.27 l
0.55 8.80 l
0.56 -20.59 l
0.55 3.88 l
444.32 118.66 lineto
0.55 8.62 l
0.56 -9.41 l
0.55 -0.70 l
0.56 -12.33 l
0.55 4.15 l
0.56 6.42 l
0.55 4.10 l
0.56 3.23 l
0.55 -1.38 l
0.56 7.28 l
0.55 -9.83 l
0.56 0.80 l
0.55 1.32 l
0.56 9.70 l
0.55 2.73 l
0.55 1.59 l
0.56 8.64 l
0.55 -7.83 l
0.56 -6.32 l
0.55 -2.71 l
0.56 4.19 l
0.55 -10.98 l
0.56 0.93 l
0.55 -7.17 l
0.56 1.62 l
0.55 -9.92 l
0.56 1.64 l
0.55 -0.68 l
0.56 2.72 l
0.55 3.31 l
0.56 9.61 l
0.55 -5.88 l
0.56 2.16 l
0.55 10.27 l
0.56 -8.08 l
0.55 -6.96 l
0.55 1.86 l
0.56 0.89 l
0.55 -1.61 l
0.56 6.24 l
0.55 -4.84 l
0.56 0.57 l
0.55 -4.43 l
0.56 8.31 l
0.55 -5.09 l
0.56 8.66 l
0.55 6.46 l
0.56 -2.54 l
0.55 -3.23 l
0.56 12.38 l
0.55 9.06 l
0.56 -15.71 l
0.55 16.64 l
0.56 13.30 l
0.55 -10.98 l
0.56 10.52 l
0.55 20.02 l
0.56 -9.17 l
0.55 -4.82 l
0.55 7.63 l
0.56 -15.18 l
0.55 -7.89 l
0.56 -6.90 l
0.55 -8.21 l
0.56 -11.91 l
0.55 8.41 l
0.56 -13.19 l
0.55 11.40 l
0.56 -0.45 l
0.55 1.10 l
0.56 14.89 l
0.55 9.78 l
0.56 4.66 l
0.55 10.28 l
0.56 -5.36 l
0.55 6.97 l
0.56 -0.29 l
0.55 8.70 l
0.56 -12.98 l
0.55 13.04 l
0.56 12.71 l
0.55 -1.17 l
0.55 35.22 l
0.56 6.86 l
0.55 13.36 l
0.56 -32.94 l
0.55 6.11 l
0.56 -5.87 l
0.55 -12.53 l
0.56 -11.74 l
0.55 -5.57 l
0.56 -5.96 l
0.55 17.54 l
0.56 -18.30 l
0.55 39.23 l
0.56 17.38 l
0.55 16.72 l
0.56 -23.62 l
0.55 19.30 l
499.80 215.48 lineto
0.55 3.28 l
0.56 -14.26 l
0.55 -8.31 l
0.55 -2.53 l
0.56 0.28 l
0.55 2.00 l
0.56 -0.23 l
0.55 -0.04 l
0.56 0.05 l
0.55 -0.37 l
0.56 -1.10 l
0.55 1.88 l
0.56 -0.03 l
0.55 1.61 l
0.56 -0.54 l
0.55 -0.05 l
0.56 -0.58 l
0.55 0.34 l
0.56 -1.10 l
0.55 0.23 l
0.56 -0.33 l
0.55 0.03 l
0.56 0.24 l
0.55 0.22 l
0.56 0.37 l
0.55 -0.26 l
0.55 0.48 l
0.56 -0.03 l
0.55 0.43 l
0.56 0.56 l
0.55 0.35 l
0.56 0.97 l
0.55 0.69 l
0.56 0.46 l
0.55 -0.48 l
0.56 0.17 l
0.55 -0.37 l
0.56 0.35 l
0.55 0.12 l
0.56 0.29 l
0.55 0.29 l
0.56 0.05 l
0.55 -0.78 l
0.56 0.09 l
0.55 0.37 l
0.56 0.13 l
0.55 -0.07 l
0.56 0.07 l
0.55 0.02 l
0.55 0.17 l
o
18.00 18.00 823.89 577.28 cl
0 0 0 srgb
0.75 setlinewidth
[] 0 setdash
1 setlinecap
1 setlinejoin
10.00 setmiterlimit
np
332.81 66.47 m
194.17 0 l
o
np
332.81 66.47 m
0 -4.75 l
o
np
360.55 66.47 m
0 -4.75 l
o
np
388.29 66.47 m
0 -4.75 l
o
np
416.02 66.47 m
0 -4.75 l
o
np
443.76 66.47 m
0 -4.75 l
o
np
471.50 66.47 m
0 -4.75 l
o
np
499.24 66.47 m
0 -4.75 l
o
np
526.98 66.47 m
0 -4.75 l
o
/Font1 findfont 8 s
332.81 49.36 (0) .5 0 t
360.55 49.36 (50) .5 0 t
388.29 49.36 (100) .5 0 t
416.02 49.36 (150) .5 0 t
443.76 49.36 (200) .5 0 t
471.50 49.36 (250) .5 0 t
499.24 49.36 (300) .5 0 t
526.98 49.36 (350) .5 0 t
np
325.60 71.48 m
0 168.70 l
o
np
325.60 71.48 m
-4.76 0 l
o
np
325.60 113.66 m
-4.76 0 l
o
np
325.60 155.83 m
-4.76 0 l
o
np
325.60 198.01 m
-4.76 0 l
o
np
325.60 240.18 m
-4.76 0 l
o
314.19 71.48 (0) .5 90 t
314.19 113.66 (10) .5 90 t
314.19 155.83 (20) .5 90 t
314.19 198.01 (30) .5 90 t
314.19 240.18 (40) .5 90 t
np
 325.60 66.47 m
209.70 0 l
0 192.20 l
-209.70 0 l
cp p1
286.63 18.00 555.26 297.64 cl
/Font2 findfont 8 s
0 0 0 srgb
408.22 275.28 (omega2.m) 0 ta
-0.160 (u) tb gr
/Font1 findfont 8 s
416.00 30.36 (Iter) 0 ta
-0.080 (ation) tb gr
325.60 66.47 535.30 258.67 cl
0.5451 0 0 srgb
1.50 setlinewidth
[] 0 setdash
1 setlinecap
1 setlinejoin
10.00 setmiterlimit
np
499.24 66.47 m
0 192.20 l
o
77.04 91.44 793.65 518.24 cl
ep
%%Page: 3 3
bp
77.04 91.44 390.70 518.24 cl
/bg { 0 0 0 srgb } def
0 0 0 srgb
0.75 setlinewidth
[] 0 setdash
1 setlinecap
1 setlinejoin
10.00 setmiterlimit
379.09 107.25 1.80 c p3
379.09 107.25 1.80 c p3
379.09 107.25 1.80 c p3
88.66 502.43 1.80 c p3
379.09 107.25 1.80 c p3
379.09 107.25 1.80 c p3
379.09 107.25 1.80 c p3
88.66 502.43 1.80 c p3
379.09 107.25 1.80 c p3
379.09 107.25 1.80 c p3
379.09 107.25 1.80 c p3
379.09 107.25 1.80 c p3
379.09 107.25 1.80 c p3
379.09 107.25 1.80 c p3
379.09 107.25 1.80 c p3
379.09 107.25 1.80 c p3
379.09 107.25 1.80 c p3
379.09 107.25 1.80 c p3
379.09 107.25 1.80 c p3
379.09 107.25 1.80 c p3
379.09 107.25 1.80 c p3
379.09 107.25 1.80 c p3
379.09 107.25 1.80 c p3
88.66 502.43 1.80 c p3
379.09 107.25 1.80 c p3
379.09 107.25 1.80 c p3
379.09 107.25 1.80 c p3
379.09 107.25 1.80 c p3
379.09 107.25 1.80 c p3
379.09 107.25 1.80 c p3
379.09 107.25 1.80 c p3
379.09 107.25 1.80 c p3
379.09 107.25 1.80 c p3
379.09 107.25 1.80 c p3
379.09 107.25 1.80 c p3
379.09 107.25 1.80 c p3
379.09 107.25 1.80 c p3
379.09 107.25 1.80 c p3
379.09 107.25 1.80 c p3
379.09 107.25 1.80 c p3
379.09 107.25 1.80 c p3
379.09 107.25 1.80 c p3
379.09 107.25 1.80 c p3
379.09 107.25 1.80 c p3
379.09 107.25 1.80 c p3
379.09 107.25 1.80 c p3
379.09 107.25 1.80 c p3
379.09 107.25 1.80 c p3
379.09 107.25 1.80 c p3
379.09 107.25 1.80 c p3
379.09 107.25 1.80 c p3
379.09 107.25 1.80 c p3
379.09 107.25 1.80 c p3
379.09 107.25 1.80 c p3
379.09 107.25 1.80 c p3
379.09 107.25 1.80 c p3
379.09 107.25 1.80 c p3
379.09 107.25 1.80 c p3
379.09 107.25 1.80 c p3
88.66 502.43 1.80 c p3
379.09 107.25 1.80 c p3
88.66 502.43 1.80 c p3
379.09 107.25 1.80 c p3
379.09 107.25 1.80 c p3
379.09 107.25 1.80 c p3
379.09 107.25 1.80 c p3
379.09 107.25 1.80 c p3
379.09 107.25 1.80 c p3
379.09 107.25 1.80 c p3
379.09 107.25 1.80 c p3
379.09 107.25 1.80 c p3
379.09 107.25 1.80 c p3
379.09 107.25 1.80 c p3
379.09 107.25 1.80 c p3
379.09 107.25 1.80 c p3
379.09 107.25 1.80 c p3
379.09 107.25 1.80 c p3
379.09 107.25 1.80 c p3
379.09 107.25 1.80 c p3
379.09 107.25 1.80 c p3
379.09 107.25 1.80 c p3
379.09 107.25 1.80 c p3
379.09 107.25 1.80 c p3
379.09 107.25 1.80 c p3
379.09 107.25 1.80 c p3
379.09 107.25 1.80 c p3
379.09 107.25 1.80 c p3
379.09 107.25 1.80 c p3
379.09 107.25 1.80 c p3
379.09 107.25 1.80 c p3
379.09 107.25 1.80 c p3
88.66 502.43 1.80 c p3
379.09 107.25 1.80 c p3
379.09 107.25 1.80 c p3
379.09 107.25 1.80 c p3
379.09 107.25 1.80 c p3
379.09 107.25 1.80 c p3
88.66 502.43 1.80 c p3
379.09 107.25 1.80 c p3
379.09 107.25 1.80 c p3
379.09 107.25 1.80 c p3
379.09 107.25 1.80 c p3
379.09 107.25 1.80 c p3
379.09 107.25 1.80 c p3
379.09 107.25 1.80 c p3
379.09 107.25 1.80 c p3
379.09 107.25 1.80 c p3
379.09 107.25 1.80 c p3
379.09 107.25 1.80 c p3
379.09 107.25 1.80 c p3
379.09 107.25 1.80 c p3
379.09 107.25 1.80 c p3
379.09 107.25 1.80 c p3
379.09 107.25 1.80 c p3
379.09 107.25 1.80 c p3
379.09 107.25 1.80 c p3
379.09 107.25 1.80 c p3
379.09 107.25 1.80 c p3
379.09 107.25 1.80 c p3
379.09 107.25 1.80 c p3
379.09 107.25 1.80 c p3
379.09 107.25 1.80 c p3
379.09 107.25 1.80 c p3
379.09 107.25 1.80 c p3
379.09 107.25 1.80 c p3
379.09 107.25 1.80 c p3
379.09 107.25 1.80 c p3
379.09 107.25 1.80 c p3
379.09 107.25 1.80 c p3
379.09 107.25 1.80 c p3
379.09 107.25 1.80 c p3
88.66 502.43 1.80 c p3
379.09 107.25 1.80 c p3
379.09 107.25 1.80 c p3
379.09 107.25 1.80 c p3
88.66 502.43 1.80 c p3
379.09 107.25 1.80 c p3
379.09 107.25 1.80 c p3
379.09 107.25 1.80 c p3
88.66 502.43 1.80 c p3
379.09 107.25 1.80 c p3
379.09 107.25 1.80 c p3
379.09 107.25 1.80 c p3
88.66 502.43 1.80 c p3
379.09 107.25 1.80 c p3
379.09 107.25 1.80 c p3
379.09 107.25 1.80 c p3
379.09 107.25 1.80 c p3
379.09 107.25 1.80 c p3
379.09 107.25 1.80 c p3
379.09 107.25 1.80 c p3
379.09 107.25 1.80 c p3
379.09 107.25 1.80 c p3
379.09 107.25 1.80 c p3
379.09 107.25 1.80 c p3
379.09 107.25 1.80 c p3
379.09 107.25 1.80 c p3
88.66 502.43 1.80 c p3
379.09 107.25 1.80 c p3
379.09 107.25 1.80 c p3
379.09 107.25 1.80 c p3
379.09 107.25 1.80 c p3
379.09 107.25 1.80 c p3
379.09 107.25 1.80 c p3
379.09 107.25 1.80 c p3
379.09 107.25 1.80 c p3
379.09 107.25 1.80 c p3
88.66 502.43 1.80 c p3
379.09 107.25 1.80 c p3
379.09 107.25 1.80 c p3
379.09 107.25 1.80 c p3
379.09 107.25 1.80 c p3
379.09 107.25 1.80 c p3
88.66 502.43 1.80 c p3
379.09 107.25 1.80 c p3
379.09 107.25 1.80 c p3
379.09 107.25 1.80 c p3
379.09 107.25 1.80 c p3
379.09 107.25 1.80 c p3
379.09 107.25 1.80 c p3
379.09 107.25 1.80 c p3
379.09 107.25 1.80 c p3
379.09 107.25 1.80 c p3
379.09 107.25 1.80 c p3
379.09 107.25 1.80 c p3
379.09 107.25 1.80 c p3
379.09 107.25 1.80 c p3
379.09 107.25 1.80 c p3
379.09 107.25 1.80 c p3
379.09 107.25 1.80 c p3
379.09 107.25 1.80 c p3
379.09 107.25 1.80 c p3
379.09 107.25 1.80 c p3
379.09 107.25 1.80 c p3
379.09 107.25 1.80 c p3
88.66 502.43 1.80 c p3
379.09 107.25 1.80 c p3
379.09 107.25 1.80 c p3
379.09 107.25 1.80 c p3
379.09 107.25 1.80 c p3
18.00 18.00 823.89 577.28 cl
0 0 0 srgb
0.75 setlinewidth
[] 0 setdash
1 setlinecap
1 setlinejoin
10.00 setmiterlimit
np
92.10 91.44 m
286.99 0 l
o
np
92.10 91.44 m
0 -7.20 l
o
np
133.10 91.44 m
0 -7.20 l
o
np
174.10 91.44 m
0 -7.20 l
o
np
215.09 91.44 m
0 -7.20 l
o
np
256.09 91.44 m
0 -7.20 l
o
np
297.09 91.44 m
0 -7.20 l
o
np
338.09 91.44 m
0 -7.20 l
o
np
379.09 91.44 m
0 -7.20 l
o
/Font1 findfont 12 s
92.10 65.52 (-700) .5 0 t
133.10 65.52 (-600) .5 0 t
174.10 65.52 (-500) .5 0 t
215.09 65.52 (-400) .5 0 t
256.09 65.52 (-300) .5 0 t
297.09 65.52 (-200) .5 0 t
338.09 65.52 (-100) .5 0 t
379.09 65.52 (0) .5 0 t
np
77.04 107.25 m
0 395.18 l
o
np
77.04 107.25 m
-7.20 0 l
o
np
77.04 186.28 m
-7.20 0 l
o
np
77.04 265.32 m
-7.20 0 l
o
np
77.04 344.36 m
-7.20 0 l
o
np
77.04 423.39 m
-7.20 0 l
o
np
77.04 502.43 m
-7.20 0 l
o
59.76 107.25 (0.0) .5 90 t
59.76 186.28 (0.2) .5 90 t
59.76 265.32 (0.4) .5 90 t
59.76 344.36 (0.6) .5 90 t
59.76 423.39 (0.8) .5 90 t
59.76 502.43 (1.0) .5 90 t
np
 77.04 91.44 m
313.66 0 l
0 426.80 l
-313.66 0 l
cp p1
18.00 18.00 420.94 577.28 cl
/Font2 findfont 12 s
0 0 0 srgb
168.86 543.45 (P) 0 ta
-0.480 (opulation predictions) tb gr
/Font1 findfont 12 s
233.87 36.72 (Predictions) .5 0 t
30.96 269.49 (Obser) 90 ta
0.360 (v) tb
-0.300 (ations) tb gr
77.04 91.44 390.70 518.24 cl
0.5451 0 0 srgb
1.50 setlinewidth
[ 4.50 7.50] 0 setdash
1 setlinecap
1 setlinejoin
10.00 setmiterlimit
np
375.65 -3205.56 m
7.27 7006.39 l
o
479.98 91.44 793.65 518.24 cl
/bg { 0 0 0 srgb } def
0 0 0 srgb
0.75 setlinewidth
[] 0 setdash
1 setlinecap
1 setlinejoin
10.00 setmiterlimit
781.85 107.25 1.80 c p3
781.85 107.25 1.80 c p3
781.85 107.25 1.80 c p3
780.40 502.43 1.80 c p3
781.85 107.25 1.80 c p3
781.85 107.25 1.80 c p3
781.85 107.25 1.80 c p3
782.03 502.43 1.80 c p3
781.85 107.25 1.80 c p3
781.85 107.25 1.80 c p3
781.85 107.25 1.80 c p3
781.85 107.25 1.80 c p3
781.85 107.25 1.80 c p3
781.85 107.25 1.80 c p3
781.85 107.25 1.80 c p3
781.85 107.25 1.80 c p3
781.85 107.25 1.80 c p3
781.85 107.25 1.80 c p3
781.85 107.25 1.80 c p3
781.85 107.25 1.80 c p3
781.85 107.25 1.80 c p3
781.85 107.25 1.80 c p3
781.85 107.25 1.80 c p3
491.60 502.43 1.80 c p3
781.85 107.25 1.80 c p3
781.85 107.25 1.80 c p3
781.85 107.25 1.80 c p3
781.85 107.25 1.80 c p3
781.85 107.25 1.80 c p3
781.85 107.25 1.80 c p3
781.85 107.25 1.80 c p3
781.85 107.25 1.80 c p3
781.85 107.25 1.80 c p3
781.85 107.25 1.80 c p3
781.85 107.25 1.80 c p3
781.85 107.25 1.80 c p3
781.85 107.25 1.80 c p3
781.85 107.25 1.80 c p3
781.85 107.25 1.80 c p3
781.85 107.25 1.80 c p3
781.85 107.25 1.80 c p3
781.85 107.25 1.80 c p3
781.85 107.25 1.80 c p3
781.85 107.25 1.80 c p3
781.85 107.25 1.80 c p3
781.85 107.25 1.80 c p3
781.85 107.25 1.80 c p3
781.85 107.25 1.80 c p3
781.85 107.25 1.80 c p3
781.85 107.25 1.80 c p3
781.85 107.25 1.80 c p3
781.85 107.25 1.80 c p3
781.85 107.25 1.80 c p3
781.85 107.25 1.80 c p3
781.85 107.25 1.80 c p3
781.85 107.25 1.80 c p3
781.85 107.25 1.80 c p3
781.85 107.25 1.80 c p3
781.85 107.25 1.80 c p3
779.62 502.43 1.80 c p3
781.85 107.25 1.80 c p3
779.82 502.43 1.80 c p3
781.85 107.25 1.80 c p3
781.85 107.25 1.80 c p3
781.85 107.25 1.80 c p3
781.85 107.25 1.80 c p3
781.85 107.25 1.80 c p3
781.85 107.25 1.80 c p3
781.85 107.25 1.80 c p3
781.85 107.25 1.80 c p3
781.85 107.25 1.80 c p3
781.85 107.25 1.80 c p3
781.85 107.25 1.80 c p3
781.85 107.25 1.80 c p3
781.85 107.25 1.80 c p3
781.85 107.25 1.80 c p3
781.85 107.25 1.80 c p3
781.85 107.25 1.80 c p3
781.85 107.25 1.80 c p3
781.85 107.25 1.80 c p3
781.85 107.25 1.80 c p3
781.85 107.25 1.80 c p3
781.85 107.25 1.80 c p3
781.85 107.25 1.80 c p3
781.85 107.25 1.80 c p3
781.85 107.25 1.80 c p3
781.85 107.25 1.80 c p3
781.85 107.25 1.80 c p3
781.85 107.25 1.80 c p3
781.85 107.25 1.80 c p3
781.85 107.25 1.80 c p3
781.38 502.43 1.80 c p3
781.85 107.25 1.80 c p3
781.85 107.25 1.80 c p3
781.85 107.25 1.80 c p3
781.85 107.25 1.80 c p3
781.85 107.25 1.80 c p3
780.09 502.43 1.80 c p3
781.85 107.25 1.80 c p3
781.85 107.25 1.80 c p3
781.85 107.25 1.80 c p3
781.85 107.25 1.80 c p3
781.85 107.25 1.80 c p3
781.85 107.25 1.80 c p3
781.85 107.25 1.80 c p3
781.85 107.25 1.80 c p3
781.85 107.25 1.80 c p3
781.85 107.25 1.80 c p3
781.85 107.25 1.80 c p3
781.85 107.25 1.80 c p3
781.85 107.25 1.80 c p3
781.85 107.25 1.80 c p3
781.85 107.25 1.80 c p3
781.85 107.25 1.80 c p3
781.85 107.25 1.80 c p3
781.85 107.25 1.80 c p3
781.85 107.25 1.80 c p3
781.85 107.25 1.80 c p3
781.85 107.25 1.80 c p3
781.85 107.25 1.80 c p3
781.85 107.25 1.80 c p3
781.85 107.25 1.80 c p3
781.85 107.25 1.80 c p3
781.85 107.25 1.80 c p3
781.85 107.25 1.80 c p3
781.85 107.25 1.80 c p3
781.85 107.25 1.80 c p3
781.85 107.25 1.80 c p3
781.85 107.25 1.80 c p3
781.85 107.25 1.80 c p3
781.85 107.25 1.80 c p3
781.45 502.43 1.80 c p3
781.85 107.25 1.80 c p3
781.85 107.25 1.80 c p3
781.85 107.25 1.80 c p3
779.83 502.43 1.80 c p3
781.85 107.25 1.80 c p3
781.85 107.25 1.80 c p3
781.85 107.25 1.80 c p3
780.32 502.43 1.80 c p3
781.85 107.25 1.80 c p3
781.85 107.25 1.80 c p3
781.85 107.25 1.80 c p3
780.14 502.43 1.80 c p3
781.85 107.25 1.80 c p3
781.85 107.25 1.80 c p3
781.85 107.25 1.80 c p3
781.85 107.25 1.80 c p3
781.85 107.25 1.80 c p3
781.85 107.25 1.80 c p3
781.85 107.25 1.80 c p3
781.85 107.25 1.80 c p3
781.85 107.25 1.80 c p3
781.85 107.25 1.80 c p3
781.85 107.25 1.80 c p3
781.85 107.25 1.80 c p3
781.85 107.25 1.80 c p3
779.95 502.43 1.80 c p3
781.85 107.25 1.80 c p3
781.85 107.25 1.80 c p3
781.85 107.25 1.80 c p3
781.85 107.25 1.80 c p3
781.85 107.25 1.80 c p3
781.85 107.25 1.80 c p3
781.85 107.25 1.80 c p3
781.85 107.25 1.80 c p3
781.85 107.25 1.80 c p3
779.67 502.43 1.80 c p3
781.85 107.25 1.80 c p3
781.85 107.25 1.80 c p3
781.85 107.25 1.80 c p3
781.85 107.25 1.80 c p3
781.85 107.25 1.80 c p3
780.97 502.43 1.80 c p3
781.85 107.25 1.80 c p3
781.85 107.25 1.80 c p3
781.85 107.25 1.80 c p3
781.85 107.25 1.80 c p3
781.85 107.25 1.80 c p3
781.85 107.25 1.80 c p3
781.85 107.25 1.80 c p3
781.85 107.25 1.80 c p3
781.85 107.25 1.80 c p3
781.85 107.25 1.80 c p3
781.85 107.25 1.80 c p3
781.85 107.25 1.80 c p3
781.85 107.25 1.80 c p3
781.85 107.25 1.80 c p3
781.85 107.25 1.80 c p3
781.85 107.25 1.80 c p3
781.85 107.25 1.80 c p3
781.85 107.25 1.80 c p3
781.85 107.25 1.80 c p3
781.85 107.25 1.80 c p3
781.85 107.25 1.80 c p3
779.88 502.43 1.80 c p3
781.85 107.25 1.80 c p3
781.85 107.25 1.80 c p3
781.85 107.25 1.80 c p3
781.85 107.25 1.80 c p3
18.00 18.00 823.89 577.28 cl
0 0 0 srgb
0.75 setlinewidth
[] 0 setdash
1 setlinecap
1 setlinejoin
10.00 setmiterlimit
np
495.04 91.44 m
286.81 0 l
o
np
495.04 91.44 m
0 -7.20 l
o
np
536.02 91.44 m
0 -7.20 l
o
np
576.99 91.44 m
0 -7.20 l
o
np
617.96 91.44 m
0 -7.20 l
o
np
658.93 91.44 m
0 -7.20 l
o
np
699.91 91.44 m
0 -7.20 l
o
np
740.88 91.44 m
0 -7.20 l
o
np
781.85 91.44 m
0 -7.20 l
o
/Font1 findfont 12 s
495.04 65.52 (-700) .5 0 t
536.02 65.52 (-600) .5 0 t
576.99 65.52 (-500) .5 0 t
617.96 65.52 (-400) .5 0 t
658.93 65.52 (-300) .5 0 t
699.91 65.52 (-200) .5 0 t
740.88 65.52 (-100) .5 0 t
781.85 65.52 (0) .5 0 t
np
479.98 107.25 m
0 395.18 l
o
np
479.98 107.25 m
-7.20 0 l
o
np
479.98 186.28 m
-7.20 0 l
o
np
479.98 265.32 m
-7.20 0 l
o
np
479.98 344.36 m
-7.20 0 l
o
np
479.98 423.39 m
-7.20 0 l
o
np
479.98 502.43 m
-7.20 0 l
o
462.70 107.25 (0.0) .5 90 t
462.70 186.28 (0.2) .5 90 t
462.70 265.32 (0.4) .5 90 t
462.70 344.36 (0.6) .5 90 t
462.70 423.39 (0.8) .5 90 t
462.70 502.43 (1.0) .5 90 t
np
 479.98 91.44 m
313.67 0 l
0 426.80 l
-313.67 0 l
cp p1
420.94 18.00 823.89 577.28 cl
/Font2 findfont 12 s
0 0 0 srgb
636.82 543.45 (Individual predictions, MAP) .5 0 t
/Font1 findfont 12 s
636.82 36.72 (Predictions) .5 0 t
433.90 269.49 (Obser) 90 ta
0.360 (v) tb
-0.300 (ations) tb gr
479.98 91.44 793.65 518.24 cl
0.5451 0 0 srgb
1.50 setlinewidth
[ 4.50 7.50] 0 setdash
1 setlinecap
1 setlinejoin
10.00 setmiterlimit
np
778.42 -3205.56 m
7.26 7006.39 l
o
77.04 91.44 793.65 518.24 cl
ep
%%Page: 4 4
bp
67.00 358.59 395.85 528.27 cl
/bg { 0.8275 0.8275 0.8275 srgb } def
np
 170.53 417.41 m
121.79 0 l
0 12.49 l
-121.79 0 l
cp p2
0 0 0 srgb
2.25 setlinewidth
[] 0 setdash
0 setlinecap
1 setlinejoin
10.00 setmiterlimit
np
170.53 422.25 m
121.79 0 l
o
0.75 setlinewidth
[ 2.25 3.75] 0 setdash
1 setlinecap
np
231.42 400.16 m
0 17.25 l
o
np
231.42 448.02 m
0 -18.12 l
o
0.75 setlinewidth
[] 0 setdash
np
200.98 400.16 m
60.89 0 l
o
np
200.98 448.02 m
60.89 0 l
o
np
 170.53 417.41 m
121.79 0 l
0 12.49 l
-121.79 0 l
cp p1
231.42 521.99 1.86 c p1
231.42 370.86 1.86 c p1
231.42 396.13 1.86 c p1
231.42 500.51 1.86 c p1
231.42 490.61 1.86 c p1
231.42 385.58 1.86 c p1
231.42 369.41 1.86 c p1
231.42 364.88 1.86 c p1
231.42 467.71 1.86 c p1
18.00 18.00 823.89 577.28 cl
0 0 0 srgb
0.75 setlinewidth
[] 0 setdash
1 setlinecap
1 setlinejoin
10.00 setmiterlimit
np
67.00 378.16 m
0 127.57 l
o
np
67.00 378.16 m
-5.97 0 l
o
np
67.00 403.67 m
-5.97 0 l
o
np
67.00 429.19 m
-5.97 0 l
o
np
67.00 454.70 m
-5.97 0 l
o
np
67.00 480.21 m
-5.97 0 l
o
np
67.00 505.73 m
-5.97 0 l
o
/Font1 findfont 10 s
52.66 378.16 (-5) .5 90 t
52.66 403.67 (-4) .5 90 t
52.66 429.19 (-3) .5 90 t
52.66 454.70 (-2) .5 90 t
52.66 480.21 (-1) .5 90 t
52.66 505.73 (0) .5 90 t
18.00 297.64 420.94 577.28 cl
/Font2 findfont 10 s
0 0 0 srgb
231.42 549.18 (alpha) .5 0 t
18.00 18.00 823.89 577.28 cl
0 0 0 srgb
0.75 setlinewidth
[] 0 setdash
1 setlinecap
1 setlinejoin
10.00 setmiterlimit
np
 67.00 358.59 m
328.85 0 l
0 169.68 l
-328.85 0 l
cp p1
469.95 358.59 798.79 528.27 cl
/bg { 0.8275 0.8275 0.8275 srgb } def
np
 573.47 377.71 m
121.80 0 l
0 14.03 l
-121.80 0 l
cp p2
0 0 0 srgb
2.25 setlinewidth
[] 0 setdash
0 setlinecap
1 setlinejoin
10.00 setmiterlimit
np
573.47 383.75 m
121.80 0 l
o
0.75 setlinewidth
[ 2.25 3.75] 0 setdash
1 setlinecap
np
634.37 364.88 m
0 12.83 l
o
np
634.37 400.20 m
0 -8.46 l
o
0.75 setlinewidth
[] 0 setdash
np
603.92 364.88 m
60.90 0 l
o
np
603.92 400.20 m
60.90 0 l
o
np
 573.47 377.71 m
121.80 0 l
0 14.03 l
-121.80 0 l
cp p1
634.37 497.63 1.86 c p1
634.37 520.30 1.86 c p1
634.37 484.73 1.86 c p1
634.37 441.37 1.86 c p1
634.37 478.16 1.86 c p1
634.37 493.04 1.86 c p1
634.37 485.47 1.86 c p1
634.37 446.61 1.86 c p1
634.37 458.55 1.86 c p1
634.37 521.99 1.86 c p1
634.37 475.39 1.86 c p1
634.37 486.24 1.86 c p1
634.37 483.48 1.86 c p1
634.37 470.06 1.86 c p1
18.00 18.00 823.89 577.28 cl
0 0 0 srgb
0.75 setlinewidth
[] 0 setdash
1 setlinecap
1 setlinejoin
10.00 setmiterlimit
np
469.95 373.10 m
0 152.65 l
o
np
469.95 373.10 m
-5.98 0 l
o
np
469.95 423.98 m
-5.98 0 l
o
np
469.95 474.87 m
-5.98 0 l
o
np
469.95 525.75 m
-5.98 0 l
o
/Font1 findfont 10 s
455.61 373.10 (-35) .5 90 t
455.61 423.98 (-30) .5 90 t
455.61 474.87 (-25) .5 90 t
455.61 525.75 (-20) .5 90 t
420.94 297.64 823.89 577.28 cl
/Font2 findfont 10 s
0 0 0 srgb
626.87 549.18 (m) 0 ta
-0.200 (u) tb gr
18.00 18.00 823.89 577.28 cl
0 0 0 srgb
0.75 setlinewidth
[] 0 setdash
1 setlinecap
1 setlinejoin
10.00 setmiterlimit
np
 469.95 358.59 m
328.84 0 l
0 169.68 l
-328.84 0 l
cp p1
67.00 78.96 395.85 248.63 cl
/bg { 0.8275 0.8275 0.8275 srgb } def
np
 170.53 163.79 m
121.79 0 l
0 0 l
-121.79 0 l
cp p2
0 0 0 srgb
2.25 setlinewidth
[] 0 setdash
0 setlinecap
1 setlinejoin
10.00 setmiterlimit
np
170.53 163.79 m
121.79 0 l
o
0.75 setlinewidth
[ 2.25 3.75] 0 setdash
1 setlinecap
np
231.42 163.79 m
0 0 l
o
np
231.42 163.79 m
0 0 l
o
0.75 setlinewidth
[] 0 setdash
np
200.98 163.79 m
60.89 0 l
o
np
200.98 163.79 m
60.89 0 l
o
np
 170.53 163.79 m
121.79 0 l
0 0 l
-121.79 0 l
cp p1
18.00 18.00 823.89 577.28 cl
0 0 0 srgb
0.75 setlinewidth
[] 0 setdash
1 setlinecap
1 setlinejoin
10.00 setmiterlimit
np
67.00 83.22 m
0 138.48 l
o
np
67.00 83.22 m
-5.97 0 l
o
np
67.00 110.91 m
-5.97 0 l
o
np
67.00 138.61 m
-5.97 0 l
o
np
67.00 166.31 m
-5.97 0 l
o
np
67.00 194.00 m
-5.97 0 l
o
np
67.00 221.70 m
-5.97 0 l
o
/Font1 findfont 10 s
52.66 83.22 (-5.0) .5 90 t
52.66 138.61 (-4.0) .5 90 t
52.66 194.00 (-3.0) .5 90 t
18.00 18.00 420.94 297.64 cl
/Font2 findfont 10 s
0 0 0 srgb
231.42 269.55 (sigma) .5 0 t
18.00 18.00 823.89 577.28 cl
0 0 0 srgb
0.75 setlinewidth
[] 0 setdash
1 setlinecap
1 setlinejoin
10.00 setmiterlimit
np
 67.00 78.96 m
328.85 0 l
0 169.67 l
-328.85 0 l
cp p1
77.04 91.44 793.65 518.24 cl
ep
%%Page: 5 5
bp
71.78 291.66 414.97 499.59 cl
65.81 285.69 420.94 505.56 cl
18.00 18.00 823.89 577.28 cl
0 0 0 srgb
0.75 setlinewidth
[] 0 setdash
1 setlinecap
1 setlinejoin
10.00 setmiterlimit
np
 71.78 291.66 m
343.19 0 l
0 207.93 l
-343.19 0 l
cp p1
71.78 291.66 414.97 499.59 cl
/Font1 findfont 20 s
0 0 0 srgb
243.38 390.51 (alpha) .5 0 t
71.78 71.78 414.97 279.71 cl
65.81 65.81 420.94 285.69 cl
18.00 18.00 823.89 577.28 cl
0 0 0 srgb
0.75 setlinewidth
[] 0 setdash
1 setlinecap
1 setlinejoin
10.00 setmiterlimit
np
 71.78 71.78 m
343.19 0 l
0 207.93 l
-343.19 0 l
cp p1
np
82.98 71.78 m
328.53 0 l
o
np
82.98 71.78 m
0 -5.97 l
o
np
165.12 71.78 m
0 -5.97 l
o
np
247.25 71.78 m
0 -5.97 l
o
np
329.38 71.78 m
0 -5.97 l
o
np
411.51 71.78 m
0 -5.97 l
o
/Font1 findfont 10 s
82.98 50.27 (0.0) .5 0 t
165.12 50.27 (0.5) .5 0 t
247.25 50.27 (1.0) .5 0 t
329.38 50.27 (1.5) .5 0 t
411.51 50.27 (2.0) .5 0 t
np
71.78 79.48 m
0 199.36 l
o
np
71.78 79.48 m
-5.97 0 l
o
np
71.78 107.96 m
-5.97 0 l
o
np
71.78 136.44 m
-5.97 0 l
o
np
71.78 164.92 m
-5.97 0 l
o
np
71.78 193.40 m
-5.97 0 l
o
np
71.78 221.88 m
-5.97 0 l
o
np
71.78 250.36 m
-5.97 0 l
o
np
71.78 278.84 m
-5.97 0 l
o
57.44 79.48 (0.0e+00) .5 90 t
57.44 136.44 (1.0e-10) .5 90 t
57.44 193.40 (2.0e-10) .5 90 t
57.44 250.36 (3.0e-10) .5 90 t
71.78 71.78 414.97 279.71 cl
/bg { 0 0 0 srgb } def
0 0 0 srgb
0.75 setlinewidth
[] 0 setdash
1 setlinecap
1 setlinejoin
10.00 setmiterlimit
89.74 79.48 1.49 c p3
89.93 114.56 1.49 c p3
89.74 79.48 1.49 c p3
402.26 128.98 1.49 c p3
89.74 79.48 1.49 c p3
89.74 79.48 1.49 c p3
89.74 79.48 1.49 c p3
89.74 79.48 1.49 c p3
89.74 79.48 1.49 c p3
89.74 79.48 1.49 c p3
89.74 79.48 1.49 c p3
89.69 79.48 1.49 c p3
89.74 79.48 1.49 c p3
89.74 79.48 1.49 c p3
89.74 79.48 1.49 c p3
89.74 79.48 1.49 c p3
89.74 79.48 1.49 c p3
89.74 79.48 1.49 c p3
89.74 79.48 1.49 c p3
89.74 79.48 1.49 c p3
89.74 79.48 1.49 c p3
89.74 79.48 1.49 c p3
89.74 79.48 1.49 c p3
89.74 79.48 1.49 c p3
89.74 79.48 1.49 c p3
89.74 79.48 1.49 c p3
89.74 79.48 1.49 c p3
89.74 79.48 1.49 c p3
89.74 79.48 1.49 c p3
84.49 80.05 1.49 c p3
85.42 79.65 1.49 c p3
89.74 79.48 1.49 c p3
89.74 79.48 1.49 c p3
89.74 79.48 1.49 c p3
89.74 79.48 1.49 c p3
89.74 79.48 1.49 c p3
89.74 79.48 1.49 c p3
89.74 79.48 1.49 c p3
89.74 79.48 1.49 c p3
89.74 79.48 1.49 c p3
89.74 79.48 1.49 c p3
89.74 79.48 1.49 c p3
89.74 79.48 1.49 c p3
89.74 79.48 1.49 c p3
89.74 79.48 1.49 c p3
172.45 94.70 1.49 c p3
89.75 79.48 1.49 c p3
89.74 79.48 1.49 c p3
87.80 80.74 1.49 c p3
89.74 79.48 1.49 c p3
89.74 79.48 1.49 c p3
89.74 79.48 1.49 c p3
89.74 79.48 1.49 c p3
89.74 79.48 1.49 c p3
89.74 79.48 1.49 c p3
89.74 79.48 1.49 c p3
89.74 79.48 1.49 c p3
89.74 79.48 1.49 c p3
89.74 79.48 1.49 c p3
89.74 79.48 1.49 c p3
89.74 79.48 1.49 c p3
89.74 79.48 1.49 c p3
89.74 79.48 1.49 c p3
89.74 79.48 1.49 c p3
89.74 79.48 1.49 c p3
188.54 83.10 1.49 c p3
89.74 79.48 1.49 c p3
84.68 79.77 1.49 c p3
89.74 79.48 1.49 c p3
91.28 79.87 1.49 c p3
89.74 79.48 1.49 c p3
84.56 272.01 1.49 c p3
89.74 79.48 1.49 c p3
89.74 79.48 1.49 c p3
89.74 79.48 1.49 c p3
89.74 79.48 1.49 c p3
89.74 79.48 1.49 c p3
89.74 79.48 1.49 c p3
86.36 81.21 1.49 c p3
89.74 79.48 1.49 c p3
89.74 79.48 1.49 c p3
89.74 79.48 1.49 c p3
89.74 79.48 1.49 c p3
84.69 79.77 1.49 c p3
89.74 79.48 1.49 c p3
89.74 79.48 1.49 c p3
123.57 86.98 1.49 c p3
89.74 79.48 1.49 c p3
89.74 79.48 1.49 c p3
89.74 79.48 1.49 c p3
89.74 79.48 1.49 c p3
89.74 79.48 1.49 c p3
89.74 79.48 1.49 c p3
89.74 79.48 1.49 c p3
89.74 79.48 1.49 c p3
89.74 79.48 1.49 c p3
89.74 79.48 1.49 c p3
85.84 82.97 1.49 c p3
89.74 79.48 1.49 c p3
89.75 79.48 1.49 c p3
0.8745 0.3255 0.4196 srgb
np
84.49 80.00 m
0.07 0.03 l
0.12 0.07 l
0.01 0 l
0.73 0.40 l
0.42 0.23 l
0.52 0.28 l
1.44 -0.27 l
1.89 30.08 l
0.05 0.70 l
0 0 l
0 0.02 l
0 0.01 l
0 0.01 l
0 0 l
0 0 l
0 0 l
0 0 l
0 0 l
0 0 l
0 0.01 l
0 0 l
0 0 l
0 0 l
0 0 l
0 0 l
0 0.01 l
0 0 l
0 0 l
0 0 l
0 0 l
0 0 l
0 0 l
0 0 l
0 0 l
0 0 l
0 0 l
0 0 l
0 0 l
0 0 l
0 0 l
0 0 l
0 0 l
0 0 l
0 0 l
0 0 l
0 0 l
0 0 l
0 0 l
0 0 l
0 0.01 l
0 0 l
0 0 l
0 0 l
0 0 l
0 0 l
0 0 l
0 0 l
0 0 l
0 0 l
0 0 l
0 0 l
0 0 l
0 0 l
0 0 l
0 0 l
0 0 l
0 0 l
0 0 l
0 0 l
0 0 l
0 0 l
0 0 l
0 0 l
0 0 l
0 0 l
0 0 l
0 0 l
0 0 l
0 0 l
0 0 l
0 0 l
0 0 l
0 0.01 l
0 0 l
0 0 l
0 0 l
0 0 l
0 0 l
0 0 l
0 0 l
0 0.01 l
0.01 0.01 l
0 0.07 l
0.18 2.81 l
1.35 -33.55 l
32.29 6.03 l
48.88 1.46 l
16.09 -0.76 l
213.72 41.11 l
o
426.92 291.66 770.11 499.59 cl
420.94 285.69 776.08 505.56 cl
18.00 18.00 823.89 577.28 cl
0 0 0 srgb
0.75 setlinewidth
[] 0 setdash
1 setlinecap
1 setlinejoin
10.00 setmiterlimit
np
 426.92 291.66 m
343.19 0 l
0 207.93 l
-343.19 0 l
cp p1
np
439.63 499.59 m
329.04 0 l
o
np
439.63 499.59 m
0 5.97 l
o
np
486.63 499.59 m
0 5.97 l
o
np
533.64 499.59 m
0 5.97 l
o
np
580.64 499.59 m
0 5.97 l
o
np
627.65 499.59 m
0 5.97 l
o
np
674.66 499.59 m
0 5.97 l
o
np
721.66 499.59 m
0 5.97 l
o
np
768.67 499.59 m
0 5.97 l
o
/Font1 findfont 10 s
439.63 513.93 (0.0e+00) .5 0 t
486.63 513.93 (5.0e-11) .5 0 t
533.64 513.93 (1.0e-10) .5 0 t
580.64 513.93 (1.5e-10) .5 0 t
627.65 513.93 (2.0e-10) .5 0 t
674.66 513.93 (2.5e-10) .5 0 t
721.66 513.93 (3.0e-10) .5 0 t
768.67 513.93 (3.5e-10) .5 0 t
np
770.11 298.45 m
0 199.04 l
o
np
770.11 298.45 m
5.97 0 l
o
np
770.11 348.21 m
5.97 0 l
o
np
770.11 397.97 m
5.97 0 l
o
np
770.11 447.73 m
5.97 0 l
o
np
770.11 497.49 m
5.97 0 l
o
791.62 298.45 (0.0) .5 90 t
791.62 348.21 (0.5) .5 90 t
791.62 397.97 (1.0) .5 90 t
791.62 447.73 (1.5) .5 90 t
791.62 497.49 (2.0) .5 90 t
426.92 291.66 770.11 499.59 cl
/bg { 0 0 0 srgb } def
0 0 0 srgb
0.75 setlinewidth
[] 0 setdash
1 setlinecap
1 setlinejoin
10.00 setmiterlimit
439.63 302.54 1.49 c p3
497.52 302.65 1.49 c p3
439.63 302.54 1.49 c p3
521.33 491.89 1.49 c p3
439.63 302.54 1.49 c p3
439.63 302.54 1.49 c p3
439.63 302.54 1.49 c p3
439.63 302.54 1.49 c p3
439.63 302.54 1.49 c p3
439.63 302.54 1.49 c p3
439.63 302.54 1.49 c p3
439.63 302.51 1.49 c p3
439.63 302.54 1.49 c p3
439.63 302.54 1.49 c p3
439.63 302.54 1.49 c p3
439.63 302.54 1.49 c p3
439.63 302.54 1.49 c p3
439.63 302.54 1.49 c p3
439.63 302.54 1.49 c p3
439.63 302.54 1.49 c p3
439.63 302.54 1.49 c p3
439.63 302.54 1.49 c p3
439.63 302.54 1.49 c p3
439.63 302.54 1.49 c p3
439.63 302.54 1.49 c p3
439.63 302.54 1.49 c p3
439.63 302.54 1.49 c p3
439.63 302.54 1.49 c p3
439.63 302.54 1.49 c p3
440.56 299.36 1.49 c p3
439.90 299.92 1.49 c p3
439.63 302.54 1.49 c p3
439.63 302.54 1.49 c p3
439.63 302.54 1.49 c p3
439.63 302.54 1.49 c p3
439.63 302.54 1.49 c p3
439.63 302.54 1.49 c p3
439.63 302.54 1.49 c p3
439.63 302.54 1.49 c p3
439.63 302.54 1.49 c p3
439.63 302.54 1.49 c p3
439.63 302.54 1.49 c p3
439.63 302.54 1.49 c p3
439.63 302.54 1.49 c p3
439.63 302.54 1.49 c p3
464.74 352.65 1.49 c p3
439.63 302.54 1.49 c p3
439.63 302.54 1.49 c p3
441.70 301.36 1.49 c p3
439.63 302.54 1.49 c p3
439.63 302.54 1.49 c p3
439.63 302.54 1.49 c p3
439.63 302.54 1.49 c p3
439.63 302.54 1.49 c p3
439.63 302.54 1.49 c p3
439.63 302.54 1.49 c p3
439.63 302.54 1.49 c p3
439.63 302.54 1.49 c p3
439.63 302.54 1.49 c p3
439.63 302.54 1.49 c p3
439.63 302.54 1.49 c p3
439.63 302.54 1.49 c p3
439.63 302.54 1.49 c p3
439.63 302.54 1.49 c p3
439.63 302.54 1.49 c p3
445.60 362.40 1.49 c p3
439.63 302.54 1.49 c p3
440.11 299.47 1.49 c p3
439.63 302.54 1.49 c p3
440.26 303.47 1.49 c p3
439.63 302.54 1.49 c p3
757.40 299.40 1.49 c p3
439.63 302.54 1.49 c p3
439.63 302.54 1.49 c p3
439.63 302.54 1.49 c p3
439.63 302.54 1.49 c p3
439.63 302.54 1.49 c p3
439.63 302.54 1.49 c p3
442.48 300.49 1.49 c p3
439.63 302.54 1.49 c p3
439.63 302.54 1.49 c p3
439.63 302.54 1.49 c p3
439.63 302.54 1.49 c p3
440.10 299.48 1.49 c p3
439.63 302.54 1.49 c p3
439.63 302.54 1.49 c p3
452.00 323.03 1.49 c p3
439.63 302.54 1.49 c p3
439.63 302.54 1.49 c p3
439.63 302.54 1.49 c p3
439.63 302.54 1.49 c p3
439.63 302.54 1.49 c p3
439.63 302.54 1.49 c p3
439.63 302.54 1.49 c p3
439.63 302.54 1.49 c p3
439.63 302.54 1.49 c p3
439.63 302.54 1.49 c p3
445.38 300.18 1.49 c p3
439.63 302.54 1.49 c p3
439.63 302.55 1.49 c p3
0.8745 0.3255 0.4196 srgb
np
439.63 302.54 m
0 0 l
0 0 l
0 0 l
0 0 l
0 0 l
0 0 l
0 0 l
0 0 l
0 0 l
0 0 l
0 0 l
0 0 l
0 0 l
0 0 l
0 0 l
0 0 l
0 0 l
0 0 l
0 0 l
0 0 l
0 0 l
0 0 l
0 0 l
0 0 l
0 0 l
0 0 l
0 0 l
0 0 l
0 0 l
0 0 l
0 0 l
0 0 l
0 0 l
0 0 l
0 0 l
0 0 l
0 0 l
0 0 l
0 0 l
0 0 l
0 0 l
0 0 l
0 0 l
0 0 l
0 0 l
0 0 l
0 0 l
0 0 l
0 0 l
0 0 l
0 0 l
0 0 l
0 0 l
0 0 l
0 0 l
0 0 l
0 0 l
0 0 l
0 0 l
0 0 l
0 0 l
0 0 l
0 0 l
0 0 l
0 0 l
0 0 l
0 0 l
0 0 l
0 0 l
0 0 l
0 0 l
0 0 l
0 0 l
0 0 l
0 0 l
0 0 l
0 0 l
0 0 l
0 0 l
0 0 l
0 0 l
0 0 l
0 0 l
0 0 l
0 0 l
0.27 -0.19 l
0.20 -0.15 l
0.01 0 l
0.15 -0.11 l
0.30 -0.22 l
1.14 -0.82 l
0.78 -0.56 l
2.90 57.52 l
0.22 4.39 l
6.40 126.87 l
12.74 252.69 l
32.78 649.69 l
23.81 472.06 l
97.71 1937.12 l
o
426.92 71.78 770.11 279.71 cl
420.94 65.81 776.08 285.69 cl
18.00 18.00 823.89 577.28 cl
0 0 0 srgb
0.75 setlinewidth
[] 0 setdash
1 setlinecap
1 setlinejoin
10.00 setmiterlimit
np
 426.92 71.78 m
343.19 0 l
0 207.93 l
-343.19 0 l
cp p1
426.92 71.78 770.11 279.71 cl
/Font1 findfont 20 s
0 0 0 srgb
584.62 170.52 (m) 0 ta
-0.200 (u) tb gr
18.00 18.00 823.89 577.28 cl
/Font2 findfont 14 s
0 0 0 srgb
297.64 543.81 (Correlations between random eff) 0 ta
-0.140 (ects) tb gr
77.04 91.44 793.65 518.24 cl
ep
%%Trailer
%%Pages: 5
%%EOF
