"0","ggsurvplot(fit,"
"0","          conf.int = TRUE,"
"0","          risk.table.col = ""strata"", # Change risk table color by groups"
"0","          ggtheme = theme_bw(), # Change ggplot2 theme"
"0","          palette = c(""#E7B800"", ""#2E9FDF""),"
"0","          fun = ""event"")"
