v_diag,MFS,MFS_event
523598775.59829885,609,1
523598775.59829885,1491,1
8181230868.723419,3223,0
523598775.59829885,6448,0
4188790204.786391,2239,1
22449297503.77706,5423,0
14137166941.154068,5768,0
2144660584.850632,6469,0
5575279762.570686,2337,0
523598775.59829885,6156,0
696909970.3213358,5974,0
523598775.59829885,6790,0
4188790204.786391,6378,0
6370626302.704501,4392,0
8181230868.723419,6017,0
2572440784.514442,1665,0
8181230868.723419,2189,0
65449846949.78735,1399,0
4188790204.786391,709,0
1767145867.6442585,6372,0
1767145867.6442585,6406,0
9202772079.915699,6296,0
3053628059.2892785,2654,0
179594380.0302165,6028,0
6370626302.704501,5696,0
8181230868.723419,4523,0
17157284678.805056,18,1
1767145867.6442585,2665,1
523598775.59829885,479,1
268082573.106329,2984,1
14137166941.154068,6311,0
523598775.59829885,5439,0
1767145867.6442585,6096,0
5575279762.570686,5988,0
904778684.2338603,6318,0
3053628059.2892785,5881,0
523598775.59829885,5766,0
268082573.106329,4337,1
523598775.59829885,1463,0
4188790204.786391,1781,1
268082573.106329,3323,1
904778684.2338603,5503,0
5575279762.570686,1695,0
1767145867.6442585,5732,0
1436755040.241732,5686,0
4188790204.786391,740,1
1767145867.6442585,6229,0
14137166941.154068,6146,0
14137166941.154068,5395,0
4188790204.786391,1896,1
904778684.2338603,2263,0
8181230868.723419,2807,0
381703507.4111598,6188,0
381703507.4111598,5798,0
179594380.0302165,1436,1
1767145867.6442585,5423,0
3591364001.8287315,6227,0
11494040321.933855,953,0
4188790204.786391,1202,1
904778684.2338603,6034,0
1436755040.241732,6139,0
1767145867.6442585,1289,0
8181230868.723419,2082,0
904778684.2338603,4884,0
2572440784.514442,4031,0
523598775.59829885,6461,0
523598775.59829885,3257,1
268082573.106329,5565,0
3591364001.8287315,5465,0
4188790204.786391,153,0
3053628059.2892785,6082,0
523598775.59829885,5969,0
904778684.2338603,5747,0
8181230868.723419,5097,0
1767145867.6442585,2587,0
904778684.2338603,5025,1
523598775.59829885,3712,0
1767145867.6442585,5211,0
87113746290.16696,4015,0
3053628059.2892785,3354,0
6370626302.704501,1573,0
2572440784.514442,6334,0
523598775.59829885,6361,0
20579526276.115536,2079,1
7238229473.870882,5944,0
14137166941.154068,5383,0
8181230868.723419,5757,0
179594380.0302165,6054,0
381703507.4111598,5290,0
523598775.59829885,4227,1
4188790204.786391,589,0
1767145867.6442585,3498,0
523598775.59829885,1418,0
3053628059.2892785,3605,0
1767145867.6442585,6380,0
268082573.106329,6212,0
8181230868.723419,5618,0
2144660584.850632,5928,0
33510321638.291126,6463,0
904778684.2338603,5270,0
1767145867.6442585,5647,0
523598775.59829885,5273,0
1767145867.6442585,5894,0
904778684.2338603,6132,0
904778684.2338603,6331,0
523598775.59829885,4687,0
3053628059.2892785,5979,0
523598775.59829885,3840,1
2572440784.514442,4536,0
14137166941.154068,1456,0
3053628059.2892785,5593,0
1150346509.9894624,5513,0
1767145867.6442585,5946,0
3053628059.2892785,5415,0
2572440784.514442,6141,0
179594380.0302165,5698,0
904778684.2338603,4059,1
3053628059.2892785,408,0
5575279762.570686,729,0
4188790204.786391,5558,0
4188790204.786391,5432,0
1767145867.6442585,7090,0
3053628059.2892785,3620,1
2572440784.514442,4497,1
113097335.52923253,5168,0
523598775.59829885,4855,0
904778684.2338603,2163,0
8181230868.723419,2488,1
904778684.2338603,2027,0
268082573.106329,5685,0
1767145867.6442585,1159,1
8181230868.723419,4514,0
3053628059.2892785,2800,1
6370626302.704501,4364,0
1767145867.6442585,5915,0
5575279762.570686,5085,0
904778684.2338603,6204,0
6370626302.704501,6149,0
113097335.52923253,3403,0
1767145867.6442585,3975,0
4188790204.786391,679,0
8181230868.723419,5436,0
523598775.59829885,5706,0
1767145867.6442585,2939,0
4188790204.786391,1126,1
4188790204.786391,3908,0
1150346509.9894624,6076,0
5575279762.570686,4536,0
2572440784.514442,5789,0
523598775.59829885,6018,0
1436755040.241732,5750,0
179594380.0302165,673,1
4188790204.786391,4517,1
523598775.59829885,4235,0
4188790204.786391,5453,0
268082573.106329,3375,1
1767145867.6442585,5265,0
3053628059.2892785,5602,0
904778684.2338603,5903,0
4188790204.786391,1497,1
3053628059.2892785,5730,0
1150346509.9894624,5768,0
1767145867.6442585,6041,0
4188790204.786391,3553,1
1150346509.9894624,5132,0
179594380.0302165,5637,1
4188790204.786391,4925,0
268082573.106329,3891,0
1150346509.9894624,4979,0
8181230868.723419,3664,0
5575279762.570686,1751,1
113097335529.23254,2415,0
113097335.52923253,5954,0
33510321.638291124,3390,0
1767145867.6442585,7150,0
4188790204.786391,2053,1
8181230868.723419,2064,0
5575279762.570686,2177,1
523598775.59829885,3626,0
14137166941.154068,1436,0
523598775.59829885,5771,0
904778684.2338603,4002,0
4188790204.786391,5964,0
523598775.59829885,5538,0
8181230868.723419,5300,0
65449846.949787356,850,1
1436755040.241732,5501,0
523598775.59829885,5373,0
2572440784.514442,4547,0
523598775.59829885,5386,0
904778684.2338603,5162,0
5575279762.570686,1043,1
2572440784.514442,3417,1
65449846.949787356,4822,0
1150346509.9894624,4637,0
4188790204.786391,5899,0
268082573.106329,775,0
2144660584.850632,5339,0
1767145867.6442585,5920,0
1767145867.6442585,5178,0
8181230868.723419,3939,0
9202772079.915699,1782,1
4188790204.786391,5724,0
1436755040.241732,5837,0
4188790204.786391,5924,0
1150346509.9894624,5396,0
1767145867.6442585,3797,0
10305994700.101315,1291,1
3053628059.2892785,5408,0
113097335529.23254,5749,0
3053628059.2892785,973,0
1767145867.6442585,1925,1
1767145867.6442585,210,1
2572440784.514442,211,1
8181230868.723419,3831,0
11494040321.933855,4432,0
1150346509.9894624,723,0
1767145867.6442585,5703,0
4188790204.786391,5491,0
268082573.106329,5590,0
1150346509.9894624,5668,0
8181230868.723419,3542,1
1767145867.6442585,5867,0
9202772079.915699,2160,1
523598775.59829885,5680,0
113097335529.23254,3274,0
1767145867.6442585,457,1
1767145867.6442585,4732,0
8181230868.723419,1813,1
2572440784.514442,2664,0
523598775.59829885,5607,0
1767145867.6442585,5846,0
1150346509.9894624,789,1
268082573.106329,5744,0
6370626302.704501,1174,0
4188790204.786391,5504,0
4188790204.786391,3829,0
1150346509.9894624,4499,0
14137166.941154066,1223,1
1767145867.6442585,5202,0
1767145867.6442585,3738,0
4188790204.786391,4699,0
1150346509.9894624,5062,0
14137166941.154068,2021,0
268082573.106329,1856,1
696909970.3213358,4623,0
28730912014.629852,5171,0
1767145867.6442585,4842,0
8181230868.723419,381,1
904778684.2338603,2596,0
523598775.59829885,5129,0
4188790204.786391,481,1
1767145867.6442585,3188,0
1767145867.6442585,2833,0
1767145867.6442585,2184,0
10305994700.101315,6775,0
268082573.106329,1276,1
696909970.3213358,5665,0
3053628059.2892785,5720,0
3053628059.2892785,5046,0
1767145867.6442585,3953,0
14137166941.154068,4648,0
904778684.2338603,5546,0
3591364001.8287315,5163,0
523598775.59829885,3518,0
1436755040.241732,114,1
1767145867.6442585,1149,0
268082573.106329,6214,0
523598775.59829885,4687,0
904778684.2338603,2136,0
47712938426.39497,2188,0
523598775.59829885,5922,0
4188790204.786391,4717,0
268082573.106329,1050,1
14137166941.154068,2723,1
4188790204.786391,5209,0
696909970.3213358,1867,1
2572440784.514442,191,1
904778684.2338603,752,1
1767145867.6442585,1738,0
1150346509.9894624,5348,0
904778684.2338603,4742,1
523598775.59829885,5158,0
8181230868.723419,2208,0
523598775.59829885,5643,0
1767145867.6442585,5065,0
523598775.59829885,4591,0
1767145867.6442585,3928,0
1767145867.6442585,919,1
8181230868.723419,5454,0
1767145867.6442585,5629,0
6370626302.704501,4956,0
1767145867.6442585,5203,0
47712938426.39497,2483,0
8181230868.723419,3790,0
22449297503.77706,311,0
5575279762.570686,4313,0
523598775.59829885,5397,0
1436755040.241732,5012,0
65449846.949787356,4197,0
1150346509.9894624,4860,0
1767145867.6442585,4442,0
6370626302.704501,5392,0
1767145867.6442585,4377,0
18816569198.676064,2470,1
381703507.4111598,5582,0
523598775.59829885,2509,1
1767145867.6442585,2808,0
904778684.2338603,5199,0
1150346509.9894624,5097,0
1767145867.6442585,4886,0
2144660584.850632,1950,1
904778684.2338603,3172,0
523598775.59829885,4702,0
1767145867.6442585,1560,0
6370626302.704501,5015,0
8181230868.723419,5947,0
1436755040.241732,6467,0
1767145867.6442585,5502,0
22449297503.77706,1506,0
5575279762.570686,5058,0
1436755040.241732,5336,0
523598775.59829885,4622,0
1767145867.6442585,1118,1
113097335.52923253,4949,0
1150346509.9894624,5340,0
4188790204.786391,4930,0
4188790204.786391,3102,0
1767145867.6442585,3420,0
14137166941.154068,5370,0
65449846949.78735,2297,0
2572440784.514442,3496,0
65449846.949787356,2086,0
904778684.2338603,4212,0
1767145867.6442585,4877,0
5575279762.570686,1257,0
1767145867.6442585,4431,0
1767145867.6442585,6093,0
8181230868.723419,5339,0
4188790204.786391,245,1
5575279762.570686,5425,0
33510321638.291126,5467,0
8181230868.723419,4837,0
7238229473.870882,5067,0
14137166941.154068,2894,0
3053628059.2892785,6128,0
4188790204.786391,5262,0
9202772079.915699,4578,0
33510321638.291126,1394,0
179594380.0302165,5339,0
2144660584.850632,1288,1
2144660584.850632,4964,0
904778684.2338603,2375,0
3053628059.2892785,4868,0
8181230868.723419,1855,1
1767145867.6442585,3137,1
1767145867.6442585,4900,0
904778684.2338603,4534,0
22449297503.77706,1455,1
2572440784.514442,3151,0
5575279762.570686,3675,0
6370626302.704501,932,0
8181230868.723419,3444,0
5575279762.570686,896,1
47712938426.39497,384,0
2572440784.514442,4903,0
2572440784.514442,4889,0
523598775.59829885,4543,0
4188790204.786391,2732,0
381703507.4111598,2266,1
904778684.2338603,4775,0
1767145867.6442585,1862,1
4188790204.786391,4570,0
1767145867.6442585,4269,0
904778684.2338603,5366,0
523598775.59829885,5242,0
3053628059.2892785,4822,0
523598775.59829885,4740,0
4188790204.786391,4749,0
3053628059.2892785,1210,0
5575279762.570686,3595,0
4188790204.786391,3396,0
3053628059.2892785,4622,0
10305994700.101315,4056,0
179594380.0302165,4641,0
6370626302.704501,4517,0
4188790204.786391,5272,0
2144660584.850632,3942,0
1767145867.6442585,1601,1
1150346509.9894624,5320,0
3053628059.2892785,1565,0
1150346509.9894624,4836,0
2572440784.514442,1434,1
1767145867.6442585,5297,0
14137166941.154068,5041,0
5575279762.570686,2446,0
1436755040.241732,5089,0
5575279762.570686,2522,0
1150346509.9894624,3951,0
3053628059.2892785,4998,0
7238229473.870882,4380,0
523598775.59829885,5152,0
523598775.59829885,4579,0
1150346509.9894624,3983,0
113097335.52923253,4818,0
8181230868.723419,5054,0
1150346509.9894624,4140,0
268082573.106329,4661,0
6370626302.704501,4675,0
2572440784.514442,4752,0
2144660584.850632,5067,0
904778684.2338603,4343,0
696909970.3213358,3946,1
1436755040.241732,5042,0
1767145867.6442585,2573,0
268082573.106329,4490,0
5575279762.570686,1257,0
14137166941.154068,2853,0
1767145867.6442585,5197,0
1150346509.9894624,3693,0
4849048260.8158455,4118,0
8181230868.723419,5074,0
2572440784.514442,1244,0
1436755040.241732,5162,0
1436755040.241732,2013,0
904778684.2338603,2032,1
1767145867.6442585,5168,0
41629767851.49395,16,1
5575279762.570686,4911,0
381703507.4111598,1134,1
904778684.2338603,5146,0
4188790204.786391,3423,0
904778684.2338603,4797,0
179594380.0302165,4025,0
523598775.59829885,5141,0
1767145867.6442585,2033,0
523598775.59829885,4666,0
1436755040.241732,1139,1
2144660584.850632,500,1
8181230868.723419,3635,0
2572440784.514442,4467,0
4188790204.786391,4585,0
2572440784.514442,4913,0
4188790204.786391,2295,0
4188790204.786391,2022,0
381703507.4111598,2793,0
523598775.59829885,4964,0
6370626302.704501,4250,0
904778684.2338603,2546,0
2144660584.850632,3087,0
113097335.52923253,4808,0
113097335.52923253,4679,0
696909970.3213358,5112,0
2572440784.514442,926,0
1436755040.241732,3381,0
268082573.106329,4774,0
1767145867.6442585,4890,0
31059355769.71549,4723,0
8181230868.723419,4410,0
8181230868.723419,4978,0
3053628059.2892785,5133,0
904778684.2338603,4538,0
3053628059.2892785,4890,0
696909970.3213358,4319,0
2572440784.514442,3774,0
1150346509.9894624,3045,1
381703507.4111598,1466,1
523598775.59829885,4367,0
4188790204.786391,4990,0
904778684.2338603,4564,0
1150346509.9894624,3348,0
2572440784.514442,2573,0
1150346509.9894624,4478,0
8181230868.723419,783,1
1150346509.9894624,4936,0
179594380.0302165,4465,0
1767145867.6442585,2840,0
2144660584.850632,1323,1
904778684.2338603,4989,0
523598775.59829885,2035,1
8181230868.723419,4501,0
904778684.2338603,2933,0
523598775.59829885,4593,0
3591364001.8287315,4709,0
3053628059.2892785,4992,0
10305994700.101315,3660,0
2572440784.514442,4177,0
268082573.106329,4267,0
2144660584.850632,3686,0
9202772079.915699,2409,0
1436755040.241732,3695,0
1436755040.241732,2298,0
904778684.2338603,1753,0
1767145867.6442585,817,1
10305994700.101315,1138,1
3053628059.2892785,4482,0
1767145867.6442585,4685,0
4188790204.786391,4203,0
4188790204.786391,4612,0
1767145867.6442585,655,0
3053628059.2892785,4222,0
65449846.949787356,4501,0
11494040321.933855,2455,0
904778684.2338603,4893,0
5575279762.570686,3724,0
904778684.2338603,4629,0
179594380.0302165,4445,0
4188790204.786391,4217,0
2572440784.514442,4508,0
8181230868.723419,4345,0
5575279762.570686,4340,0
4188790204.786391,2653,0
696909970.3213358,4494,0
1767145867.6442585,4743,0
8181230868.723419,4508,0
5575279762.570686,4823,0
1767145867.6442585,4587,0
1767145867.6442585,2469,0
4188790204.786391,1460,0
381703507.4111598,4318,0
4188790204.786391,1429,1
5575279762.570686,2420,0
4188790204.786391,1854,1
696909970.3213358,3117,0
1767145867.6442585,4507,0
1436755040.241732,4879,0
1767145867.6442585,141,1
33510321638.291126,4369,0
904778684.2338603,1465,1
268082573.106329,4455,0
8181230868.723419,2338,0
1436755040.241732,4635,0
5575279762.570686,6049,0
1767145867.6442585,4791,0
1150346509.9894624,1081,0
47712938426.39497,698,0
3053628059.2892785,2844,1
33510321.638291124,3658,0
1767145867.6442585,4395,0
904778684.2338603,4819,0
8181230868.723419,4164,0
4188790204.786391,4863,0
2572440784.514442,2915,0
1767145867.6442585,4520,0
14137166941.154068,675,0
523598775.59829885,4400,0
8181230868.723419,83,1
1436755040.241732,4468,0
523598775.59829885,4729,0
3053628059.2892785,2568,0
14137166941.154068,4764,0
381703507.4111598,4775,0
523598775.59829885,4467,0
3053628059.2892785,4209,0
904778684.2338603,4310,0
268082573.106329,4361,0
904778684.2338603,4336,0
1767145867.6442585,4346,0
2572440784.514442,4282,0
5575279762.570686,1967,0
1150346509.9894624,445,0
268082573.106329,4538,0
1767145867.6442585,3935,0
523598775.59829885,5068,0
1150346509.9894624,4370,0
2572440784.514442,4101,0
1767145867.6442585,2789,1
9202772079.915699,4699,0
268082573.106329,4774,0
4849048260.8158455,3969,0
2144660584.850632,4555,0
4188790204.786391,3387,0
696909970.3213358,3441,0
3053628059.2892785,815,0
179594380030.2165,863,1
1767145867.6442585,4011,0
11494040321.933855,4407,0
523598775.59829885,4531,0
4188790204.786391,4151,0
9202772079.915699,3684,0
3053628059.2892785,4414,0
8181230868.723419,1879,0
4188790204.786391,2613,1
696909970.3213358,4225,0
3591364001.8287315,3733,0
47712938426.39497,5286,0
4188790204.786391,2434,0
7238229473.870882,3193,0
113097335.52923253,4490,0
4188790204.786391,4282,0
523598775.59829885,4713,0
